<?xml version="1.0" standalone="no"?>
<!DOCTYPE svg PUBLIC "-//W3C//DTD SVG 1.1//EN" "http://www.w3.org/Graphics/SVG/1.1/DTD/svg11.dtd">
<svg xmlns="http://www.w3.org/2000/svg">
<defs>
<font id="Fontsaddict" horiz-adv-x="512">
<font-face font-family="Fontsaddict" units-per-em="512" ascent="448" descent="-64" x-height="240" cap-height="480"/><missing-glyph horiz-adv-x="512"/><glyph unicode="&#xE800;" glyph-name="weekly" horiz-adv-x="512" d="M160 192H96v64h64V192zM288 256h-64v-64h64V256zM416 256h-64v-64h64V256zM160 160H96v-64h64V160zM288 160h-64v-64h64V160zM416 160h-64v-64h64V160zM160 64H96v-64h64V64zM288 64h-64v-64h64V64zM128 352c17.672 0 32 14.313 32 32V416 c0 17.688 -14.328 32 -32 32S96 433.687 96 416v-32C96 366.312 110.328 352 128 352zM512 384v-448H0V384h80c0 -26.469 21.531 -48 48 -48 s48 21.531 48 48h160c0 -26.469 21.531 -48 48 -48s48 21.531 48 48H512zM480 288H32v-320h448V288zM384 352c17.688 0 32 14.313 32 32V416 c0 17.688 -14.313 32 -32 32s-32 -14.313 -32 -32v-32C352 366.312 366.313 352 384 352z"/></font></defs></svg>