<?xml version="1.0" standalone="no"?>
<!DOCTYPE svg PUBLIC "-//W3C//DTD SVG 1.1//EN" "http://www.w3.org/Graphics/SVG/1.1/DTD/svg11.dtd">
<svg xmlns="http://www.w3.org/2000/svg">
<defs>
<font id="Fontsaddict" horiz-adv-x="512">
<font-face font-family="Fontsaddict" units-per-em="512" ascent="448" descent="-64" x-height="240" cap-height="480"/><missing-glyph horiz-adv-x="512"/><glyph unicode="&#xE800;" glyph-name="space" horiz-adv-x="512" d="M306.70848 208.10752c4.8384 8.91392 7.3984 19.01056 7.3984 29.20448c0 33.81248 -27.50976 61.32224 -61.33248 61.32224 c-33.81248 0 -61.32224 -27.50976 -61.32224 -61.32224c0 -11.30496 3.16416 -22.40512 9.14432 -32.10752c11.27936 -18.29376 30.78656 -29.21472 52.1728 -29.21472 C275.30752 176 295.97184 188.29824 306.70848 208.10752zM252.78464 288.40448c28.16512 0 51.08736 -22.91712 51.08736 -51.08224c0 -6.06208 -1.09056 -12.0832 -3.15904 -17.73056 c-1.61792 1.52064 -3.30752 2.944 -5.05856 4.29056c-0.47104 0.36352 -0.96256 0.67584 -1.44384 1.024c-1.38752 0.9984 -2.75968 1.9712 -4.19328 2.86208 c-0.7168 0.44544 -1.4592 0.83968 -2.19648 1.2544c-1.25952 0.71168 -2.51392 1.40288 -3.81952 2.03776c-0.80384 0.39424 -1.63328 0.75776 -2.47296 1.12128 c-1.26976 0.55808 -2.56 1.0752 -3.86048 1.55136c-0.86016 0.31232 -1.73056 0.6144 -2.60096 0.896c-0.36864 0.11776 -0.73728 0.26624 -1.09568 0.37376l7.86944 10.3936 c1.71008 2.2528 1.25952 5.46816 -0.98304 7.17312c-2.25792 1.7152 -5.46816 1.25952 -7.168 -0.98816L262.8608 237.312c-0.41984 0.0512 -0.83968 0.11776 -1.26976 0.15872 c-2.29888 0.23552 -4.60288 0.37888 -6.9376 0.37888c-2.5088 0 -4.992 -0.15872 -7.43936 -0.43008c-0.79872 -0.08704 -1.59232 -0.25088 -2.38592 -0.36352 c-1.6384 -0.24064 -3.2768 -0.49664 -4.87936 -0.85504c-0.91648 -0.2048 -1.8176 -0.46592 -2.72384 -0.70656c-1.45408 -0.38912 -2.8928 -0.79872 -4.31104 -1.28 c-0.93184 -0.31744 -1.8432 -0.6656 -2.75456 -1.024c-1.36192 -0.53248 -2.70336 -1.10592 -4.02432 -1.72544c-0.88576 -0.41472 -1.7664 -0.83968 -2.63168 -1.29536 c-1.32096 -0.6912 -2.60608 -1.44384 -3.87584 -2.2272c-0.79872 -0.49152 -1.60768 -0.96768 -2.38592 -1.48992c-1.34656 -0.90624 -2.6368 -1.8944 -3.92192 -2.90304 c-0.64 -0.50176 -1.30048 -0.96256 -1.92 -1.48992c-1.76128 -1.48992 -3.456 -3.072 -5.07392 -4.75136c-0.09728 -0.1024 -0.20992 -0.18944 -0.3072 -0.29184 c-0.01024 -0.01024 -0.01536 -0.01536 -0.0256 -0.0256c-2.80576 6.41024 -4.26496 13.32736 -4.26496 20.33152C201.70752 265.48736 224.61952 288.40448 252.78464 288.40448zM252.78464 186.24c-16.5888 0 -31.81568 7.89504 -41.4208 21.29408c0.37376 0.4352 0.72704 0.88576 1.11104 1.31072c0.64512 0.71168 1.3056 1.408 1.98656 2.08896 c0.8448 0.8448 1.72032 1.65888 2.6112 2.44224c0.71168 0.62976 1.4336 1.2544 2.176 1.8432c0.92672 0.73728 1.87904 1.42848 2.8416 2.10432 c0.768 0.5376 1.54112 1.08032 2.33472 1.58208c1.00352 0.62976 2.03776 1.2032 3.07712 1.77152c0.80896 0.44032 1.6128 0.896 2.44224 1.29536 c1.09056 0.52736 2.21184 0.97792 3.33312 1.4336c0.82944 0.33792 1.64864 0.69632 2.49344 0.99328c1.19296 0.41984 2.42176 0.74752 3.64544 1.08544 c0.80896 0.22528 1.60256 0.4864 2.44224 0.67584c1.37216 0.31232 2.78016 0.52224 4.17792 0.73216c0.71168 0.10752 1.39776 0.26624 2.11968 0.34816 c2.14016 0.24064 4.29056 0.37376 6.4768 0.37376c2.03264 0 4.05504 -0.11776 6.05696 -0.3328c0.67072 -0.07168 1.32096 -0.20992 1.98144 -0.3072 c1.3312 -0.18944 2.6624 -0.37376 3.94752 -0.65536c0.77824 -0.16896 1.54112 -0.39936 2.30912 -0.59904c1.16224 -0.30208 2.31936 -0.59392 3.45088 -0.96768 c0.79872 -0.26112 1.58208 -0.58368 2.37568 -0.88064c1.07008 -0.40448 2.14016 -0.80896 3.17952 -1.27488c0.78336 -0.35328 1.56672 -0.75264 2.33472 -1.14176 c0.9984 -0.50688 2.00192 -1.01888 2.95936 -1.58208c0.75264 -0.44032 1.50016 -0.91648 2.24256 -1.39264c0.95232 -0.60416 1.86368 -1.2288 2.76992 -1.88928 c0.72192 -0.52224 1.41312 -1.06496 2.10944 -1.62304c0.8704 -0.70144 1.73056 -1.4336 2.56 -2.19136c0.66048 -0.59904 1.31072 -1.20832 1.94048 -1.83808 c0.34816 -0.34816 0.68096 -0.72192 1.01376 -1.08032C286.51008 195.2 270.32064 186.24 252.78464 186.24zM405.84192 60.78976C403.79392 112.1792 383.04768 159.5904 348.87168 191.46752c3.09248 13.59872 4.73088 27.45344 4.73088 41.24672 c0 65.73056 -35.09248 126.75072 -91.70944 160.09728V427.3152c0 2.82624 -2.28864 5.12 -5.12 5.12c-2.83136 0 -5.12 -2.29376 -5.12 -5.12v-34.50368 c-56.60672 -33.34656 -91.6992 -94.37184 -91.6992 -160.09728c0 -13.39904 1.54112 -26.85952 4.4544 -40.06912c-34.82624 -31.77984 -56.0384 -79.40608 -58.24512 -131.31776 c-0.09728 -2.28864 1.33632 -4.3776 3.51744 -5.07904c18.79552 -6.19008 38.3488 -9.3184 58.12224 -9.3184l2.304 0.0512c2.05312 0.03072 3.89632 1.26976 4.67968 3.15904 c7.32672 17.66912 24.13056 31.96928 45.6704 39.36256L211.8144 35.44064c-19.48672 -1.73056 -35.11296 -17.00864 -37.37088 -36.36224c-20.54144 -2.40128 -36.54656 -19.88096 -36.54656 -41.06752 c0 -2.83136 2.29376 -5.12 5.12 -5.12c2.82624 0 5.12 2.28864 5.12 5.12c0 17.17248 13.96224 31.11936 31.12448 31.11936c2.82624 0 5.12 2.29888 5.12 5.12c0 15.32928 11.14624 28.06784 25.74848 30.62784 l-2.83648 -17.7408c-0.44544 -2.7904 1.45408 -5.42208 4.2496 -5.86752c0.27136 -0.04096 0.54272 -0.06144 0.81408 -0.06144c2.46784 0 4.64384 1.792 5.04832 4.31104 l13.9008 86.9888c16.18432 3.52256 33.49504 3.11808 49.36704 -1.1776l13.93152 -87.1424c0.40448 -2.51904 2.58048 -4.31104 5.04832 -4.31104 c0.27136 0 0.53248 0.02048 0.80896 0.06144c2.7904 0.45056 4.70016 3.072 4.2496 5.8624l-2.83648 17.7408c14.60736 -2.56 25.73312 -15.29856 25.73312 -30.6176 c0 -2.83136 2.29888 -5.12 5.12 -5.12c17.17248 0 31.1296 -13.97248 31.1296 -31.11936c0 -2.83136 2.2784 -5.12 5.12 -5.12c2.82624 0 5.12 2.28864 5.12 5.12c0 21.1712 -16.01024 38.66112 -36.56192 41.06752 c-2.24256 19.31776 -17.8688 34.63168 -37.37088 36.36224l-8.57088 53.632c19.28192 -7.7824 33.91488 -21.09952 40.73472 -37.43232c0.76288 -1.8176 2.50368 -3.04128 4.48 -3.13856 c2.96448 -0.128 5.93408 -0.22016 8.92416 -0.22016c19.2512 0 38.272 2.94912 56.54016 8.7808C404.48 56.41216 405.93408 58.48064 405.84192 60.78976zM166.70208 57.15968 c-17.00864 0.10752 -33.8432 2.66752 -50.10944 7.6288c2.83136 45.62944 21.05344 87.4496 50.62656 116.51072c0.30208 -1.05984 0.68608 -2.07872 1.00352 -3.11808 c0.512 -1.66912 1.0496 -3.328 1.60768 -4.992c0.90112 -2.6624 1.8688 -5.2992 2.88256 -7.92064c0.60928 -1.5616 1.20832 -3.13856 1.85856 -4.68992 c1.18272 -2.81088 2.4576 -5.56032 3.77344 -8.29952c0.60928 -1.26976 1.16736 -2.54976 1.80224 -3.79904c2.00192 -3.9424 4.1216 -7.81824 6.40512 -11.60192 c0.18432 -0.32768 0.39936 -0.59904 0.58368 -0.90112c2.11968 -3.49184 4.35712 -6.89152 6.7072 -10.19904c0.84992 -1.20832 1.7664 -2.36032 2.64192 -3.54816 c1.77664 -2.40128 3.58912 -4.77184 5.48864 -7.08096c1.06496 -1.30048 2.17088 -2.57024 3.2768 -3.85024c1.85856 -2.14016 3.75808 -4.23936 5.71904 -6.30784 c1.1776 -1.2288 2.36544 -2.46784 3.57888 -3.68128c0.73216 -0.72192 1.408 -1.48992 2.1504 -2.21184C193.83808 91.1616 175.68256 75.99104 166.70208 57.15968zM253.5936 105.22112 c-8.57088 0 -17.07008 -0.95232 -25.29792 -2.81088c-1.49504 1.35168 -2.93376 2.7392 -4.3776 4.14208c-1.49504 1.42848 -3.02592 2.85184 -4.46464 4.34176 c-1.70496 1.76128 -3.29728 3.59936 -4.92032 5.42208c-1.35168 1.54112 -2.74944 3.03104 -4.0448 4.58752c-1.57184 1.89952 -3.03104 3.87072 -4.51584 5.83168 c-1.20832 1.59232 -2.46784 3.13856 -3.61472 4.77184c-1.44384 2.02752 -2.75968 4.16256 -4.11648 6.25152c-1.05472 1.6384 -2.16576 3.24096 -3.16416 4.89984 c-1.31584 2.2016 -2.49856 4.48 -3.71712 6.72768c-0.89088 1.64864 -1.8432 3.26144 -2.68288 4.9408c-1.20832 2.432 -2.27328 4.93056 -3.36896 7.40864 c-0.70144 1.59232 -1.47456 3.12832 -2.12992 4.74112c-1.13664 2.80064 -2.11456 5.67808 -3.10784 8.5504c-0.47104 1.35168 -1.024 2.67776 -1.46432 4.04992 c-1.36704 4.27008 -2.58048 8.6016 -3.62496 12.99968c-3.17952 13.38368 -4.79232 27.06944 -4.79232 40.67328c0 62.09536 33.09568 119.80288 86.58432 151.3216 c53.48864 -31.51872 86.58944 -89.22624 86.58944 -151.3216c0 -13.97248 -1.71008 -28.02688 -5.06368 -41.76896c-1.08544 -4.42368 -2.33472 -8.79104 -3.74272 -13.0816 c-0.44032 -1.35168 -0.98816 -2.65216 -1.46944 -3.98848c-1.01888 -2.89792 -2.03264 -5.83168 -3.23072 -8.65792c-0.67072 -1.60768 -1.4592 -3.16928 -2.18624 -4.78208 c-1.1264 -2.47808 -2.21696 -5.00224 -3.44576 -7.41888c-0.86016 -1.6896 -1.83808 -3.30752 -2.75456 -4.98176c-1.24416 -2.24256 -2.44736 -4.5312 -3.78368 -6.72256 c-1.03936 -1.6896 -2.18624 -3.30752 -3.28192 -4.98176c-1.37216 -2.05824 -2.69824 -4.16256 -4.16256 -6.19008c-1.18272 -1.6384 -2.4832 -3.23072 -3.74272 -4.82816 c-1.50016 -1.93024 -2.96448 -3.88096 -4.55168 -5.74976c-1.33632 -1.59232 -2.76992 -3.0976 -4.16768 -4.61824c-1.6384 -1.80224 -3.2512 -3.61984 -4.97152 -5.37088 c-1.46944 -1.48992 -3.03104 -2.89792 -4.56704 -4.34176c-1.44384 -1.3824 -2.8928 -2.74944 -4.39296 -4.0704C274.0992 103.84896 263.94112 105.22112 253.5936 105.22112zM340.44416 57.25184c-8.3968 17.60256 -24.55552 31.83104 -45.39392 40.15104c0.81408 0.75776 1.57184 1.60256 2.37056 2.3808c1.25952 1.21856 2.4832 2.45248 3.712 3.712 c2.00192 2.05824 3.94752 4.16768 5.84192 6.2976c1.1264 1.26976 2.24256 2.51904 3.30752 3.80928c1.9968 2.36032 3.88096 4.79232 5.71904 7.22944 c0.86016 1.14176 1.77152 2.24256 2.59072 3.39968c5.248 7.26016 9.93792 14.87872 14.05952 22.83008c0.65024 1.24928 1.2288 2.53952 1.84832 3.80928 c1.36192 2.75968 2.66752 5.55008 3.8912 8.39168c0.66048 1.53088 1.26976 3.09248 1.88928 4.62848c1.05984 2.66752 2.05824 5.36064 3.01056 8.07936 c0.55808 1.62816 1.1008 3.27168 1.61792 4.92032c0.33792 1.07008 0.7424 2.11968 1.05984 3.21024c28.95872 -29.12256 46.75072 -70.6816 49.43872 -115.7888 C377.62048 59.06944 358.95808 56.69888 340.44416 57.25184z"/></font></defs></svg>