<?xml version="1.0" standalone="no"?>
<!DOCTYPE svg PUBLIC "-//W3C//DTD SVG 1.1//EN" "http://www.w3.org/Graphics/SVG/1.1/DTD/svg11.dtd" >
<svg xmlns="http://www.w3.org/2000/svg">
<metadata></metadata>
<defs>
<font id="museo100" horiz-adv-x="600" >
<font-face units-per-em="1000" ascent="750" descent="-250" />
<missing-glyph horiz-adv-x="275" />
<glyph unicode="&#xfb01;" horiz-adv-x="507" d="M90 0v462h-63v38h63v20q0 58 17 98t44.5 57t50 23.5t46.5 6.5l26 -2v-39q-9 2 -23 2q-19 0 -36 -5t-37.5 -18.5t-33 -45t-12.5 -76.5v-21h224q31 0 44.5 -13.5t13.5 -44.5v-382q0 -22 22 -22h43v-38h-49q-31 0 -44.5 13.5t-13.5 44.5v382q0 22 -22 22h-218v-462h-42z M366 627v73h46v-73h-46z" />
<glyph unicode="&#xfb02;" horiz-adv-x="501" d="M366 58v582q0 22 -22 22h-93q-119 0 -119 -141v-21h137v-38h-137v-462h-42v462h-63v38h63v20q0 47 12 82t29 53t40.5 29t40.5 13.5t36 2.5h102q31 0 44.5 -13.5t13.5 -44.5v-582q0 -22 22 -22h43v-38h-49q-31 0 -44.5 13.5t-13.5 44.5z" />
<glyph unicode="&#xfb03;" horiz-adv-x="784" d="M90 0v462h-63v38h63v20q0 58 17 98t44.5 57t50 23.5t46.5 6.5l26 -2v-39q-9 2 -23 2q-19 0 -36 -5t-37.5 -18.5t-33 -45t-12.5 -76.5v-21h235v20q0 58 17 98t44.5 57t50 23.5t46.5 6.5l26 -2v-39q-9 2 -23 2q-19 0 -36 -5t-37.5 -18.5t-33 -45t-12.5 -76.5v-21h224 q31 0 44.5 -13.5t13.5 -44.5v-382q0 -22 22 -22h43v-38h-49q-31 0 -44.5 13.5t-13.5 44.5v382q0 22 -22 22h-218v-462h-42v462h-235v-462h-42zM643 627v73h46v-73h-46z" />
<glyph unicode="&#xfb04;" horiz-adv-x="778" d="M643 58v582q0 22 -22 22h-93q-119 0 -119 -141v-21h137v-38h-137v-462h-42v462h-235v-462h-42v462h-63v38h63v23q0 57 16 96t42.5 56t49.5 23.5t47 6.5l29 -2v-39q-11 2 -26 2q-19 0 -36 -5t-36.5 -18.5t-31.5 -44t-12 -74.5v-24h235v20q0 47 12 82t29 53t40.5 29 t40.5 13.5t36 2.5h102q31 0 44.5 -13.5t13.5 -44.5v-582q0 -22 22 -22h43v-38h-49q-31 0 -44.5 13.5t-13.5 44.5z" />
<glyph horiz-adv-x="0" />
<glyph horiz-adv-x="333" />
<glyph unicode=" "  horiz-adv-x="275" />
<glyph unicode="&#x09;" horiz-adv-x="275" />
<glyph unicode="&#xa0;" horiz-adv-x="275" />
<glyph unicode="!" horiz-adv-x="281" d="M119 175v525h43v-525h-43zM113 0v59h57v-59h-57z" />
<glyph unicode="&#x22;" horiz-adv-x="287" d="M174 558v151h43v-151h-43zM70 558v151h43v-151h-43z" />
<glyph unicode="#" horiz-adv-x="719" d="M162 0l35 199h-152l7 40h152l39 221h-152l7 40h152l35 200h43l-35 -200h189l35 200h43l-35 -200h149l-7 -40h-149l-39 -221h149l-7 -40h-149l-35 -199h-43l35 199h-189l-35 -199h-43zM247 239h189l39 221h-189z" />
<glyph unicode="$" horiz-adv-x="520" d="M49 115l35 27q2 -5 7 -12.5t21.5 -26.5t36.5 -34t52 -27t68 -12q71 0 113.5 41.5t42.5 101.5q0 54 -36.5 91.5t-88.5 61t-103.5 48t-88 67.5t-36.5 104q0 63 47.5 109.5t127.5 55.5v95h43v-93q61 -4 112 -31t51 -81v-44h-43v34q0 34 -38.5 57t-93.5 23q-75 0 -118 -36 t-43 -88q0 -51 36.5 -87t88.5 -58.5t103.5 -47.5t88 -69.5t36.5 -108.5q0 -72 -49.5 -125.5t-130.5 -60.5v-93h-43v93q-38 3 -72.5 17.5t-56.5 32.5t-38.5 35t-23.5 29z" />
<glyph unicode="%" horiz-adv-x="707" d="M195 451q-54 0 -92 38t-38 92t38 92.5t92 38.5t92.5 -38.5t38.5 -92.5t-38.5 -92t-92.5 -38zM63 0l531 700h52l-531 -700h-52zM195 491q37 0 62.5 26t25.5 64t-25.5 64.5t-62.5 26.5t-62 -26.5t-25 -64.5t25 -64t62 -26zM381 118q0 54 38 92.5t92 38.5t92.5 -38.5 t38.5 -92.5t-38.5 -92t-92.5 -38t-92 38t-38 92zM424 118q0 -38 25 -64t62 -26t62.5 26t25.5 64t-25.5 64.5t-62.5 26.5t-62 -26.5t-25 -64.5z" />
<glyph unicode="&#x26;" horiz-adv-x="612" d="M47 191q0 65 35 118t97 70v2q-4 1 -11 4t-24.5 14.5t-30.5 27.5t-24 45.5t-11 65.5q0 77 54.5 125.5t149.5 48.5q13 0 31.5 -2.5t30.5 -5.5l12 -2l-14 -38q-37 8 -63 8q-67 0 -111.5 -36.5t-44.5 -96.5q0 -23 6 -44t22 -44.5t52.5 -38t90.5 -14.5h163v102h43v-102h97v-40 h-97v-112q0 -129 -59.5 -193.5t-163.5 -64.5q-101 0 -165.5 57.5t-64.5 145.5zM92 193q0 -70 50 -116.5t135 -46.5q180 0 180 216v112h-161q-101 0 -152.5 -44.5t-51.5 -120.5z" />
<glyph unicode="'" horiz-adv-x="183" d="M70 558v151h43v-151h-43z" />
<glyph unicode="(" horiz-adv-x="290" d="M87 335q0 218 104 390h44q-107 -180 -107 -387q0 -232 115 -433h-44q-112 196 -112 430z" />
<glyph unicode=")" horiz-adv-x="290" d="M47 -95q115 201 115 433q0 207 -107 387h44q104 -172 104 -390q0 -234 -112 -430h-44z" />
<glyph unicode="*" horiz-adv-x="475" d="M143 344l-36 25l99 130v2l-156 47l13 42l155 -54l-5 164h47l-5 -164l156 53l14 -41l-157 -47v-2l98 -130l-35 -26l-93 134h-2z" />
<glyph unicode="+" d="M42 263v40h237v263h43v-263h236v-40h-236v-263h-43v263h-237z" />
<glyph unicode="," horiz-adv-x="193" d="M76 61h52l-64 -155h-41z" />
<glyph unicode="-" horiz-adv-x="432" d="M78 263v40h276v-40h-276z" />
<glyph unicode="." horiz-adv-x="193" d="M68 0v59h57v-59h-57z" />
<glyph unicode="/" horiz-adv-x="307" d="M5 -42l253 782h44l-253 -782h-44z" />
<glyph unicode="0" horiz-adv-x="598" d="M299 -12q-236 0 -236 362t236 362t236 -362t-236 -362zM299 30q54 0 92.5 24t59.5 69t30 100t9 127q0 320 -191 320t-191 -320q0 -72 9 -127t30 -100t59.5 -69t92.5 -24z" />
<glyph unicode="1" horiz-adv-x="450" d="M64 0v40h159v570l1 35h-2q-7 -13 -37 -43l-83 -83l-30 29l151 152h43v-660h155v-40h-357z" />
<glyph unicode="2" horiz-adv-x="557" d="M46 58q0 53 21 96t55 72t75 53.5t81.5 48t74.5 48.5t55 62t21 82q0 65 -44 107.5t-118 42.5q-57 0 -98 -25t-41 -60v-34h-43v44q0 40 33.5 68t73 38.5t76.5 10.5q98 0 152 -56t54 -136q0 -50 -21 -91.5t-55 -69.5t-75 -53t-82.5 -49t-75.5 -50t-55 -63t-21 -82 q0 -22 22 -22h332q22 0 22 22v49h42v-53q0 -31 -13.5 -44.5t-44.5 -13.5h-345q-31 0 -44.5 13.5t-13.5 44.5z" />
<glyph unicode="3" horiz-adv-x="515" d="M26 85l32 32q3 -4 8.5 -9.5t24.5 -20.5t39.5 -26.5t52 -21t63.5 -9.5q70 0 122.5 48.5t52.5 123.5q0 78 -55.5 122.5t-131.5 44.5h-48l-12 30l196 229l31 32v2q-19 -2 -54 -2h-224q-22 0 -22 -22v-49h-42v53q0 31 13.5 44.5t44.5 13.5h344v-30l-226 -261q36 0 72.5 -9.5 t74 -31.5t61 -65t23.5 -101q0 -89 -65.5 -151.5t-156.5 -62.5q-37 0 -73.5 10t-61.5 24.5t-44.5 28.5t-28.5 24z" />
<glyph unicode="4" horiz-adv-x="550" d="M14 200v30l363 470h40v-460h113v-40h-113v-200h-43v200h-360zM374 240v328l3 63h-2q-17 -25 -35 -48l-233 -301l-37 -43v-2q28 3 56 3h248z" />
<glyph unicode="5" horiz-adv-x="557" d="M57 89l35 27l6 -9t18.5 -21t31.5 -26t45.5 -20.5t60.5 -9.5q82 0 138 52.5t56 130.5q0 79 -56 132t-138 53q-36 0 -70 -10.5t-50 -21.5l-16 -10l-32 11l32 275q4 32 16 45t42 13h218q30 0 43.5 -13.5t13.5 -44.5v-53h-42v49q0 22 -22 22h-204q-19 0 -22 -22l-22 -187 l-7 -43h2q49 32 120 32q100 0 169.5 -66t69.5 -161q0 -94 -70 -159.5t-169 -65.5q-38 0 -72.5 10.5t-56 25t-38 29.5t-23.5 25z" />
<glyph unicode="6" horiz-adv-x="554" d="M292 -12q-113 0 -179 91t-66 226q0 69 17.5 138t51.5 130.5t94.5 100t137.5 38.5q32 0 62.5 -7t45.5 -14l14 -7l-21 -39q-43 25 -103 25q-47 0 -88 -19t-69.5 -51t-50 -75t-33 -90t-14.5 -96h2q27 48 81 74t118 26q94 0 154.5 -60t60.5 -158q0 -109 -62 -171t-153 -62z M96 258q0 -79 56 -153.5t139 -74.5q79 0 125 53t46 138q0 81 -47.5 128.5t-124.5 47.5q-78 0 -136 -44.5t-58 -94.5z" />
<glyph unicode="7" horiz-adv-x="500" d="M93 0l312 595l37 65v2q-20 -2 -55 -2h-289q-22 0 -22 -22v-49h-42v53q0 31 13.5 44.5t44.5 13.5h403v-30l-352 -670h-50z" />
<glyph unicode="8" horiz-adv-x="564" d="M52 195q0 36 13.5 68.5t33 54t39 37.5t32.5 23l14 7v2l-11 5.5t-25 16.5t-32 28.5t-25 41.5t-11 55q0 74 55.5 126t150.5 52q96 0 152 -50.5t56 -131.5q0 -31 -10.5 -61t-25 -50.5t-29.5 -36.5t-25 -24l-11 -8v-2q58 -28 88.5 -64.5t30.5 -96.5q0 -82 -67 -140.5 t-161 -58.5t-163 55.5t-69 151.5zM278 391q54 -21 69 -21q24 0 63 52t39 108q0 64 -45.5 102t-117.5 38q-74 0 -117.5 -38.5t-43.5 -97.5q0 -31 11 -53.5t36 -39.5t46 -26.5t60 -23.5zM97 195q0 -74 56 -119.5t131 -45.5q71 0 127 44.5t56 111.5q0 56 -36.5 87t-111.5 60 q-75 30 -90 30q-30 0 -81 -51.5t-51 -116.5z" />
<glyph unicode="9" horiz-adv-x="554" d="M84 16l21 39q43 -25 103 -25q59 0 107 29t78.5 77t48 106t21.5 120h-2q-27 -48 -81 -74.5t-118 -26.5q-94 0 -154.5 60t-60.5 158q0 109 62 171t153 62q113 0 179 -91t66 -226q0 -69 -17.5 -138t-51.5 -130.5t-94.5 -100t-137.5 -38.5q-32 0 -62.5 7t-45.5 14zM264 303 q78 0 136 44.5t58 94.5q0 79 -56 153.5t-139 74.5q-79 0 -125 -53t-46 -138q0 -81 47.5 -128.5t124.5 -47.5z" />
<glyph unicode=":" horiz-adv-x="273" d="M108 441v59h57v-59h-57zM108 0v59h57v-59h-57z" />
<glyph unicode=";" horiz-adv-x="273" d="M108 441v59h57v-59h-57zM63 -94l45 155h52l-56 -155h-41z" />
<glyph unicode="&#x3c;" d="M72 265v36l439 197v-48l-377 -166v-2l377 -166v-48z" />
<glyph unicode="=" d="M72 343v40h456v-40h-456zM72 183v40h456v-40h-456z" />
<glyph unicode="&#x3e;" d="M79 68v48l377 166v2l-377 166v48l439 -197v-36z" />
<glyph unicode="?" horiz-adv-x="411" d="M157 175v44q0 45 18.5 82.5t44.5 63.5t52.5 50.5t45 56.5t18.5 69q0 55 -41 92t-105 37q-32 0 -64 -10.5t-48 -21.5l-15 -10l-23 34q7 6 19 14t51 22t79 14q85 0 138.5 -49t53.5 -123q0 -39 -13.5 -71.5t-33.5 -53.5t-43.5 -44t-43.5 -42t-33.5 -48t-13.5 -62v-44h-43z M150 0v59h57v-59h-57z" />
<glyph unicode="@" horiz-adv-x="718" d="M43 243q0 151 102 258t244 107q120 0 176 -51t56 -126v-344h70v-40h-265q-80 0 -136.5 57t-56.5 137q0 81 56.5 138.5t136.5 57.5h150q-3 57 -46 94t-135 37q-129 0 -218 -94.5t-89 -230.5t88.5 -229.5t218.5 -93.5v-42q-146 0 -249 106.5t-103 258.5zM278 241 q0 -64 44.5 -109t108.5 -45h145v310h-143q-65 0 -110 -46t-45 -110z" />
<glyph unicode="A" horiz-adv-x="649" d="M13 0v40h11q30 0 38 22l239 638h47l239 -638q8 -22 38 -22h11v-40h-12q-38 0 -53.5 11t-28.5 47l-69 184h-297l-69 -184q-13 -36 -28.5 -47t-53.5 -11h-12zM191 282h268l-107 284l-27 84h-2q-15 -54 -26 -84z" />
<glyph unicode="B" horiz-adv-x="595" d="M108 58v602h-65v40h295q78 0 127.5 -48t49.5 -127q0 -109 -91 -153v-2q53 -15 86 -63t33 -114q0 -87 -55 -140t-140 -53h-182q-31 0 -44.5 13.5t-13.5 44.5zM151 388h186q59 0 96 37.5t37 99.5t-36.5 98.5t-97.5 36.5h-185v-272zM151 62q0 -22 22 -22h171q71 0 112.5 41 t41.5 112q0 70 -43.5 112.5t-111.5 42.5h-192v-286z" />
<glyph unicode="C" horiz-adv-x="688" d="M41 355q0 152 98 254.5t244 102.5q56 0 113.5 -14.5t102 -48.5t44.5 -81v-50h-43v40q0 50 -70 81t-146 31q-127 0 -212.5 -90t-85.5 -225q0 -137 86 -231t215 -94q42 0 82 10.5t67 25t47.5 29t30.5 25.5l10 10l27 -31q-4 -5 -11.5 -12t-32.5 -26.5t-53.5 -34t-73.5 -26.5 t-93 -12q-149 0 -247.5 106.5t-98.5 260.5z" />
<glyph unicode="D" horiz-adv-x="715" d="M110 58v602h-65v40h280q158 0 253.5 -93t95.5 -257q0 -165 -95 -257.5t-254 -92.5h-157q-31 0 -44.5 13.5t-13.5 44.5zM153 62q0 -22 22 -22h143q142 0 226.5 81t84.5 229q0 147 -84.5 228.5t-226.5 81.5h-165v-598z" />
<glyph unicode="E" horiz-adv-x="549" d="M110 58v602h-65v40h390q31 0 44.5 -13.5t13.5 -44.5v-53h-42v49q0 22 -22 22h-276v-287h279v-40h-279v-271q0 -22 22 -22h284q22 0 22 22v49h42v-53q0 -31 -13.5 -44.5t-44.5 -13.5h-297q-31 0 -44.5 13.5t-13.5 44.5z" />
<glyph unicode="F" horiz-adv-x="487" d="M110 0v660h-65v40h360q31 0 44.5 -13.5t13.5 -44.5v-53h-42v49q0 22 -22 22h-246v-292h268v-40h-268v-328h-43z" />
<glyph unicode="G" horiz-adv-x="724" d="M43 350q0 152 100 257t246 105q70 0 130 -21t85 -42l25 -21l-26 -34q-3 3 -9.5 8t-27.5 18.5t-44 23.5t-59 18t-74 8q-129 0 -215 -92t-86 -228q0 -137 84.5 -228.5t213.5 -91.5q42 0 82 12t67.5 28.5t49 33.5t31.5 29l10 12v102q0 22 -22 22h-43v40h50q31 0 44.5 -13.5 t13.5 -44.5v-251h-43v61l1 30h-2q-3 -4 -10 -11t-29.5 -25t-48.5 -31.5t-67 -24.5t-84 -11q-146 0 -244.5 104.5t-98.5 257.5z" />
<glyph unicode="H" horiz-adv-x="750" d="M110 0v638q0 22 -22 22h-43v40h50q31 0 44.5 -13.5t13.5 -44.5v-271h444v271q0 31 13.5 44.5t44.5 13.5h50v-40h-43q-22 0 -22 -22v-638h-43v331h-444v-331h-43z" />
<glyph unicode="I" horiz-adv-x="271" d="M50 0v40h64v620h-64v40h171v-40h-64v-620h64v-40h-171z" />
<glyph unicode="J" horiz-adv-x="490" d="M26 191v22h43v-22q0 -84 42 -122.5t102 -38.5t102 38.5t42 122.5v447q0 22 -22 22h-175v40h182q31 0 44.5 -13.5t13.5 -44.5v-451q0 -104 -54.5 -153.5t-132.5 -49.5t-132.5 49.5t-54.5 153.5z" />
<glyph unicode="K" horiz-adv-x="570" d="M110 0v638q0 22 -22 22h-43v40h50q31 0 44.5 -13.5t13.5 -44.5v-254h99q44 0 60 25l182 287h52l-191 -296q-7 -11 -15 -19.5t-12 -11.5l-4 -3v-2q14 -5 29 -35l136 -270q7 -15 18 -19t33 -4h20v-40h-20q-45 0 -62 9t-34 44l-133 268q-13 27 -65 27h-93v-348h-43z" />
<glyph unicode="L" horiz-adv-x="517" d="M110 58v580q0 22 -22 22h-43v40h50q31 0 44.5 -13.5t13.5 -44.5v-580q0 -22 22 -22h268q22 0 22 22v49h42v-53q0 -31 -13.5 -44.5t-44.5 -13.5h-281q-31 0 -44.5 13.5t-13.5 44.5z" />
<glyph unicode="M" horiz-adv-x="834" d="M23 0v40h40q21 0 22 22l51 638h42l204 -440l34 -79h2q18 45 34 79l204 440h42l51 -638q1 -22 22 -22h40v-40h-47q-30 0 -43 13.5t-15 44.5l-38 476l-3 93h-2q-20 -59 -36 -93l-188 -399h-44l-187 399l-37 95h-2q0 -61 -3 -95l-38 -476q-2 -31 -15 -44.5t-43 -13.5h-47z " />
<glyph unicode="N" horiz-adv-x="756" d="M45 0v40h43q22 0 22 22v638h40l399 -549l57 -88h2q-5 53 -5 88v491q0 31 13.5 44.5t44.5 13.5h50v-40h-43q-22 0 -22 -22v-638h-40l-399 549l-57 88h-2q5 -53 5 -88v-491q0 -31 -13.5 -44.5t-44.5 -13.5h-50z" />
<glyph unicode="O" horiz-adv-x="790" d="M41 355q0 150 103.5 253.5t250.5 103.5t250.5 -103.5t103.5 -253.5q0 -154 -103.5 -260.5t-250.5 -106.5t-250.5 106.5t-103.5 260.5zM86 355q0 -137 90 -231t219 -94t219 94t90 231q0 133 -90 224t-219 91t-219 -91t-90 -224z" />
<glyph unicode="P" horiz-adv-x="568" d="M110 0v660h-65v40h285q93 0 153 -55.5t60 -148.5q0 -94 -60 -150t-153 -56h-177v-290h-43zM153 330h175q78 0 124 44t46 122t-46 121t-124 43h-175v-330z" />
<glyph unicode="Q" horiz-adv-x="790" d="M41 354q0 151 102.5 254.5t249.5 103.5q149 0 252.5 -103.5t103.5 -254.5q0 -146 -92 -249l90 -93l-28 -27l-89 92q-98 -89 -237 -89q-146 0 -249 107t-103 259zM86 354q0 -136 89 -230t218 -94q56 0 108 19t76 39l24 19l-90 93l28 27l89 -92q76 92 76 219 q0 135 -89.5 225.5t-221.5 90.5q-130 0 -218.5 -90.5t-88.5 -225.5z" />
<glyph unicode="R" horiz-adv-x="593" d="M110 0v660h-65v40h290q85 0 139 -53.5t54 -140.5q0 -74 -39.5 -124t-104.5 -64v-2q11 -7 20 -24l114 -229q7 -15 18 -19t33 -4h14v-40h-14q-45 0 -62 9t-34 44l-105 211q-15 30 -29 38t-44 8h-142v-310h-43zM153 350h180q69 0 109.5 42.5t40.5 113.5t-40.5 112.5 t-109.5 41.5h-180v-310z" />
<glyph unicode="S" horiz-adv-x="504" d="M39 83l29 33q3 -3 8.5 -9t24 -21t38.5 -26t52 -20.5t64 -9.5q66 0 111 40.5t45 102.5q0 54 -36.5 91.5t-88.5 61t-103.5 47.5t-88 66t-36.5 102q0 70 56.5 120.5t148.5 50.5q26 0 54.5 -5.5t58.5 -17.5t49 -35t19 -54v-44h-43v34q0 34 -40.5 57t-96.5 23 q-74 0 -117.5 -37.5t-43.5 -90.5q0 -50 36.5 -85t88.5 -57t103.5 -47t88 -69.5t36.5 -108.5q0 -78 -56 -132.5t-147 -54.5q-39 0 -75 10t-60 23.5t-43 27.5t-27 24z" />
<glyph unicode="T" horiz-adv-x="605" d="M281 0v660h-202q-22 0 -22 -22v-49h-42v57q0 31 11.5 42.5t42.5 11.5h467q31 0 42.5 -11.5t11.5 -42.5v-57h-42v49q0 22 -22 22h-202v-660h-43z" />
<glyph unicode="U" horiz-adv-x="707" d="M102 235v403q0 22 -22 22h-43v40h50q31 0 44.5 -13.5t13.5 -44.5v-404q0 -95 56.5 -151.5t151.5 -56.5t152 57t57 153v402q0 31 13.5 44.5t44.5 13.5h50v-40h-43q-22 0 -22 -22v-403q0 -111 -69.5 -179t-181.5 -68t-182 68t-70 179z" />
<glyph unicode="V" horiz-adv-x="639" d="M296 0l-239 638q-8 22 -38 22h-6v40h7q38 0 53.5 -11t28.5 -47l189 -508l27 -84h2q15 51 27 84l190 508q14 37 29 47.5t53 10.5h7v-40h-6q-30 0 -38 -22l-239 -638h-47z" />
<glyph unicode="W" horiz-adv-x="925" d="M233 0l-168 638q-6 22 -39 22h-8v40h7q40 0 57.5 -11t26.5 -47l132 -512l17 -75h2q10 40 20 75l167 566h51l149 -566l17 -75h2q8 41 17 75l133 512q9 36 26.5 47t57.5 11h7v-40h-8q-33 0 -39 -22l-168 -638h-53l-141 528l-25 111h-2q-15 -65 -28 -110l-157 -529h-53z" />
<glyph unicode="X" horiz-adv-x="551" d="M19 0l226 370l-160 263q-17 27 -54 27h-17v40h17q39 0 58.5 -11t41.5 -47l99 -165l46 -78h2q21 44 42 78l100 165q22 36 41.5 47t58.5 11h17v-40h-17q-37 0 -54 -27l-161 -263l227 -370h-51l-162 266l-45 75h-2q-21 -41 -42 -76l-160 -265h-51z" />
<glyph unicode="Y" horiz-adv-x="582" d="M270 0v304l-198 329q-15 27 -49 27h-13v40h9q38 0 56 -10.5t41 -47.5l131 -218l43 -79h2q22 45 43 79l131 218q23 37 41 47.5t56 10.5h9v-40h-13q-34 0 -49 -27l-197 -329v-304h-43z" />
<glyph unicode="Z" horiz-adv-x="569" d="M20 0v34l402 562l51 64v2q-16 -2 -51 -2h-327q-22 0 -22 -22v-49h-42v53q0 31 13.5 44.5t44.5 13.5h436v-34l-402 -562l-51 -64v-2q16 2 51 2h351q22 0 22 22v49h42v-53q0 -31 -13.5 -44.5t-44.5 -13.5h-460z" />
<glyph unicode="[" horiz-adv-x="282" d="M105 -37v704q0 31 13.5 44.5t44.5 13.5h50v-40h-43q-22 0 -22 -22v-696q0 -22 22 -22h43v-40h-50q-31 0 -44.5 13.5t-13.5 44.5z" />
<glyph unicode="\" horiz-adv-x="297" d="M258 -42l-253 782h44l253 -782h-44z" />
<glyph unicode="]" horiz-adv-x="282" d="M69 -55h43q22 0 22 22v696q0 22 -22 22h-43v40h50q31 0 44.5 -13.5t13.5 -44.5v-704q0 -31 -13.5 -44.5t-44.5 -13.5h-50v40z" />
<glyph unicode="^" d="M77 252l197 448h32l197 -448h-46l-167 388l-167 -388h-46z" />
<glyph unicode="_" horiz-adv-x="506" d="M5 0h496v-40h-496v40z" />
<glyph unicode="`" horiz-adv-x="343" d="M181 750l-79 111h56l67 -111h-44z" />
<glyph unicode="a" horiz-adv-x="515" d="M43 133q0 35 13 63t32 45.5t49.5 30.5t55.5 19t60 9.5t54 4t46 0.5h33v7q0 89 -33 125t-112 36q-35 0 -73 -11t-38 -38v-34h-42v46q0 27 31.5 45.5t64 24.5t58.5 6q106 0 146 -49.5t40 -139.5v-263q0 -22 22 -22h43v-38h-49q-31 0 -44.5 14t-13.5 47l2 45h-2 q1 0 -4.5 -12t-18.5 -29.5t-32 -35t-50.5 -29.5t-67.5 -12q-68 0 -119 37.5t-51 107.5zM87 136q0 -43 34 -76t94 -33q77 0 124 65.5t47 146.5v27h-32q-31 0 -50.5 -0.5t-56 -4t-60 -12t-49 -22t-38.5 -37t-13 -54.5z" />
<glyph unicode="b" horiz-adv-x="569" d="M86 0v640q0 22 -22 22h-43v38h49q31 0 44.5 -13.5t13.5 -44.5v-197l-2 -41h2q2 4 5.5 11.5t18 26t33 33t51 26t71.5 11.5q99 0 157.5 -72t58.5 -190t-62.5 -190t-161.5 -72q-35 0 -65.5 11t-49 27t-32 32t-18.5 27l-6 11h-2q2 -18 2 -44v-52h-42zM127 249 q0 -90 45.5 -155.5t128.5 -65.5q76 0 127 60t51 162q0 100 -48.5 160.5t-125.5 60.5q-76 0 -127 -55.5t-51 -166.5z" />
<glyph unicode="c" horiz-adv-x="524" d="M44 249q0 116 75.5 189.5t182.5 73.5q23 0 50.5 -5t57 -16t49 -33t19.5 -50v-38h-42v29q0 33 -45 52.5t-89 19.5q-90 0 -152 -61.5t-62 -160.5q0 -98 62 -159t152 -61q49 0 90.5 18t59.5 36l17 18l22 -35q-3 -3 -8 -8.5t-23 -19t-38 -23.5t-52.5 -18.5t-67.5 -8.5 q-109 0 -183.5 72.5t-74.5 188.5z" />
<glyph unicode="d" horiz-adv-x="573" d="M46 250q0 118 62.5 190t161.5 72q35 0 65.5 -11t49 -27t32 -32t19.5 -27l5 -11h2q-2 18 -2 41v195q0 22 -22 22h-43v38h49q31 0 44.5 -13.5t13.5 -44.5v-582q0 -22 22 -22h43v-38h-49q-31 0 -44.5 13.5t-13.5 44.5l2 38h-2q-2 -4 -5.5 -11.5t-18 -26t-33 -33t-51 -26 t-71.5 -11.5q-99 0 -157.5 72t-58.5 190zM264 29q76 0 127 55.5t51 166.5q0 90 -45.5 155.5t-128.5 65.5q-76 0 -127 -60t-51 -162q0 -100 48.5 -160.5t125.5 -60.5z" />
<glyph unicode="e" horiz-adv-x="544" d="M44 249q0 122 71 192.5t172 70.5q97 0 150.5 -65.5t53.5 -162.5l-2 -27h-401q0 -105 61.5 -166.5t152.5 -61.5q43 0 81.5 15.5t56.5 31.5l17 16l23 -35q-8 -8 -22.5 -19.5t-61 -30.5t-94.5 -19q-109 0 -183.5 72.5t-74.5 188.5zM91 296h356q-4 87 -49 132t-112 45 q-73 0 -127.5 -46.5t-67.5 -130.5z" />
<glyph unicode="f" horiz-adv-x="287" d="M90 0v462h-63v38h63v20q0 58 17 98t44.5 57t50 23.5t46.5 6.5l26 -2v-39q-9 2 -23 2q-19 0 -36 -5t-37.5 -18.5t-33 -45t-12.5 -76.5v-21h137v-38h-137v-462h-42z" />
<glyph unicode="g" horiz-adv-x="565" d="M46 258q0 117 58.5 185.5t156.5 68.5q40 0 72 -9.5t50 -23t30 -27.5t16 -24l4 -9h2q-1 11 -1 23q0 31 13.5 44.5t44.5 13.5h49v-38h-43q-22 0 -22 -22v-437q0 -108 -65.5 -160.5t-163.5 -52.5q-81 0 -157 39l20 37q62 -35 134 -35q85 0 137.5 42.5t52.5 129.5v53l2 41h-2 q-48 -97 -166 -97q-98 0 -160 71t-62 187zM271 41q73 0 118.5 51.5t45.5 165.5q0 213 -174 213q-81 0 -126 -56t-45 -157q0 -100 50 -158.5t131 -58.5z" />
<glyph unicode="h" horiz-adv-x="590" d="M86 0v640q0 22 -22 22h-43v38h49q31 0 44.5 -13t13.5 -42v-228l-2 -41h2q17 47 72 91.5t138 44.5q92 0 128.5 -49.5t36.5 -145.5v-257q0 -22 22 -22h43v-38h-49q-31 0 -44.5 13.5t-13.5 44.5v244q0 30 -2 51.5t-9 45t-20 38.5t-36.5 24.5t-55.5 9.5q-70 0 -126.5 -44.5 t-75.5 -114.5q-8 -28 -8 -68v-244h-42z" />
<glyph unicode="i" horiz-adv-x="230" d="M89 627v73h46v-73h-46zM95 58v382q0 22 -22 22h-43v38h49q31 0 44.5 -13.5t13.5 -44.5v-382q0 -22 22 -22h43v-38h-49q-31 0 -44.5 13.5t-13.5 44.5z" />
<glyph unicode="j" horiz-adv-x="252" d="M115 627v73h46v-73h-46zM-22 -164q9 -2 22 -2q19 0 36.5 5t38 18.5t33 45t12.5 76.5v461q0 22 -22 22h-43v38h49q31 0 44.5 -13.5t13.5 -44.5v-462q0 -58 -17 -98t-44.5 -57.5t-50.5 -23.5t-47 -6l-25 2v39z" />
<glyph unicode="k" horiz-adv-x="473" d="M86 0v640q0 22 -22 22h-43v38h49q31 0 44.5 -13.5t13.5 -44.5v-340h58q39 0 61 26l141 172h56l-152 -181q-12 -13 -21.5 -21.5t-12.5 -10.5l-4 -2v-2q14 -6 30 -35l105 -187q8 -14 17.5 -18.5t30.5 -4.5h24v-38h-26q-40 0 -56 9.5t-35 43.5l-106 189q-13 23 -56 23h-54 v-265h-42z" />
<glyph unicode="l" horiz-adv-x="224" d="M89 58v582q0 22 -22 22h-43v38h49q31 0 44.5 -13.5t13.5 -44.5v-582q0 -22 22 -22h43v-38h-49q-31 0 -44.5 13.5t-13.5 44.5z" />
<glyph unicode="m" horiz-adv-x="925" d="M89 0v440q0 22 -22 22h-43v38h49q31 0 44.5 -13t13.5 -42v-28l-2 -41h2q19 56 75 96t115 40q74 0 112 -34t46 -102h2q22 58 74.5 97t115.5 39q92 0 129.5 -49.5t37.5 -145.5v-257q0 -22 22 -22h43v-38h-49q-31 0 -44.5 13.5t-13.5 44.5v244q0 82 -26 126.5t-99 44.5 q-60 0 -109.5 -45t-66.5 -107q-10 -33 -10 -77v-244h-42v302q0 30 -2 51.5t-9.5 45.5t-20 39t-35.5 25t-55 10q-64 0 -114 -47.5t-68 -113.5q-8 -28 -8 -68v-244h-42z" />
<glyph unicode="n" horiz-adv-x="593" d="M89 0v440q0 22 -22 22h-43v38h49q31 0 44.5 -13t13.5 -42v-28l-2 -41h2q17 47 72 91.5t138 44.5q92 0 128.5 -49.5t36.5 -145.5v-257q0 -22 22 -22h43v-38h-49q-31 0 -44.5 13.5t-13.5 44.5v244q0 30 -2 51.5t-9 45t-20 38.5t-36.5 24.5t-55.5 9.5q-70 0 -126.5 -44.5 t-75.5 -114.5q-8 -28 -8 -68v-244h-42z" />
<glyph unicode="o" horiz-adv-x="606" d="M44 253q0 109 75.5 184t183.5 75t183.5 -75t75.5 -184q0 -111 -75.5 -188t-183.5 -77t-183.5 77t-75.5 188zM88 253q0 -95 62.5 -159.5t152.5 -64.5t152.5 64.5t62.5 159.5q0 92 -62.5 155t-152.5 63t-152.5 -63t-62.5 -155z" />
<glyph unicode="p" horiz-adv-x="572" d="M89 -200v640q0 22 -22 22h-43v38h49q31 0 44.5 -13t13.5 -42l-1 -40h2q2 4 5.5 11.5t17.5 26t32 32.5t51 25.5t72 11.5q99 0 157.5 -72t58.5 -190t-62 -190t-160 -72q-37 0 -68.5 11t-50 27t-31.5 32t-18 27l-5 11h-2q2 -18 2 -44v-252h-42zM130 249q0 -90 46.5 -155.5 t127.5 -65.5q76 0 127 60t51 162q0 100 -48.5 160.5t-125.5 60.5q-76 0 -127 -55.5t-51 -166.5z" />
<glyph unicode="q" horiz-adv-x="573" d="M47 250q0 118 62.5 190t161.5 72q35 0 65.5 -11t49 -27t31.5 -31.5t19 -26.5l5 -11h2q-1 17 -1 40q0 55 57 55h50v-38h-43q-22 0 -22 -22v-640h-42v252l2 44h-2q-2 -4 -5.5 -11.5t-18 -26t-33 -33t-51 -26t-71.5 -11.5q-99 0 -157.5 72t-58.5 190zM265 29q76 0 127 55.5 t51 166.5q0 90 -45.5 155.5t-128.5 65.5q-76 0 -127 -60t-51 -162q0 -100 48.5 -160.5t125.5 -60.5z" />
<glyph unicode="r" horiz-adv-x="340" d="M89 0v440q0 22 -22 22h-43v38h49q31 0 44.5 -13t13.5 -42v-35l-2 -41h2q20 61 60.5 98t97.5 37l29 -3v-42q-12 2 -23 2q-55 0 -93 -39.5t-56 -100.5q-15 -48 -15 -105v-216h-42z" />
<glyph unicode="s" horiz-adv-x="427" d="M31 74l30 31q2 -3 6 -8t18.5 -18.5t31 -23.5t43.5 -18t56 -8q51 0 87 25t36 69q0 34 -29.5 59t-72 41t-85 34t-72 49.5t-29.5 75.5q0 63 47 96.5t124 33.5q19 0 41 -4.5t45.5 -13t39 -26.5t15.5 -41v-38h-42v24q0 28 -32 43t-65 15q-62 0 -95.5 -22t-33.5 -64 q0 -35 29.5 -60t72 -41t85 -33.5t72 -49.5t29.5 -78q0 -59 -48 -97t-120 -38q-35 0 -67 9t-52.5 21.5t-36 25t-21.5 21.5z" />
<glyph unicode="t" horiz-adv-x="320" d="M96 181v281h-66v38h66v139h42v-139h131v-38h-131v-278q0 -46 12.5 -78t32.5 -46.5t37.5 -19.5t36.5 -5l23 2v-39q-10 -2 -25 -2q-19 0 -37 3t-41 14.5t-40 30.5t-29 54.5t-12 82.5z" />
<glyph unicode="u" horiz-adv-x="588" d="M87 183v257q0 22 -22 22h-43v38h49q31 0 44.5 -13t13.5 -42v-247q0 -30 2 -51.5t9 -45t20 -38.5t36.5 -24.5t55.5 -9.5q90 0 147.5 67.5t57.5 159.5v244h42v-440q0 -22 22 -22h43v-38h-49q-31 0 -44.5 13t-13.5 42v28l2 41h-2q-17 -47 -70.5 -91.5t-134.5 -44.5 q-89 0 -127 48t-38 147z" />
<glyph unicode="v" horiz-adv-x="506" d="M233 0l-172 438q-9 24 -38 24h-8v38h7q38 0 53 -10.5t29 -47.5l131 -334l17 -54h2q8 30 17 54l131 334q14 37 29 47.5t53 10.5h7v-38h-8q-29 0 -38 -24l-172 -438h-40z" />
<glyph unicode="w" horiz-adv-x="833" d="M215 0l-154 438q-9 24 -38 24h-13v38h12q38 0 53.5 -10.5t28.5 -47.5l116 -334l17 -54h2q9 30 17 54l137 390h47l137 -390l17 -54h2q8 29 17 54l116 334q13 37 28.5 47.5t53.5 10.5h12v-38h-13q-29 0 -38 -24l-154 -438h-45l-139 388l-17 54h-2q-8 -30 -17 -54l-138 -388 h-45z" />
<glyph unicode="x" horiz-adv-x="462" d="M22 0l180 264l-120 176q-16 22 -50 22h-14v38h14q41 0 57.5 -10t41.5 -48l82 -124l17 -29h2q9 16 17 29l82 124q25 38 41.5 48t57.5 10h14v-38h-14q-34 0 -50 -21l-120 -177l180 -264h-52l-138 207l-18 29h-2q-8 -14 -18 -29l-138 -207h-52z" />
<glyph unicode="y" horiz-adv-x="532" d="M36 -131q0 -2 9 -10.5t28 -18.5t38 -10q60 0 98 90l36 83l-181 435q-10 24 -38 24h-8v38h7q37 0 52 -10.5t30 -47.5l142 -341l17 -47h2q7 23 17 47l141 341q15 37 30 47.5t52 10.5h7v-38h-8q-28 0 -38 -24l-231 -555q-39 -93 -127 -93q-29 0 -54 12t-35 24l-11 11z" />
<glyph unicode="z" horiz-adv-x="493" d="M45 0v34l303 381l39 46v2q-18 -2 -51 -2h-225q-22 0 -22 -22v-43h-41v46q0 31 13.5 44.5t44.5 13.5h338v-34l-304 -381l-40 -46v-2q19 2 52 2h250q22 0 22 22v43h41v-46q0 -31 -13.5 -44.5t-44.5 -13.5h-362z" />
<glyph unicode="{" horiz-adv-x="315" d="M122 88v94q0 30 -9 53.5t-21 35t-24.5 19t-21.5 9.5l-9 2v40q3 0 9 1.5t20.5 9.5t26 19.5t20.5 35t9 53.5v81q0 59 16 99.5t41 56.5t43 21.5t36 5.5h9v-39h-6q-13 0 -25.5 -4t-30.5 -17t-29 -44.5t-11 -77.5v-93q0 -27 -8 -50t-19.5 -36.5t-23.5 -23.5t-20 -13l-8 -4v-2 q3 -1 8.5 -3.5t19 -12.5t24 -22.5t19 -36.5t8.5 -52v-106q0 -46 11 -77.5t29 -44.5t30.5 -17t25.5 -4h6v-39q-3 -1 -9 -1q-13 0 -26.5 2.5t-34.5 13.5t-36.5 29t-27 54.5t-11.5 84.5z" />
<glyph unicode="|" horiz-adv-x="273" d="M115 -155v940h43v-940h-43z" />
<glyph unicode="}" horiz-adv-x="315" d="M48 -56h6q13 0 25.5 4t30.5 17t29 44.5t11 77.5v106q0 45 20 76.5t40 40.5l19 10v2q-3 1 -8.5 3.5t-19 13t-24 23.5t-19 36.5t-8.5 50.5v93q0 46 -11 77.5t-29 44.5t-30.5 17t-25.5 4h-6v39h9q18 0 36 -5.5t43 -21.5t41 -56.5t16 -99.5v-81q0 -30 9 -53.5t21 -35 t24.5 -19t21.5 -9.5l9 -2v-40q-3 0 -9 -1.5t-20.5 -9.5t-26 -19.5t-20.5 -35t-9 -53.5v-94q0 -48 -11.5 -84.5t-27 -54.5t-36.5 -29t-34.5 -13.5t-26.5 -2.5l-9 1v39z" />
<glyph unicode="~" d="M72 213q0 74 31.5 109t83.5 35q31 0 55.5 -11.5t40 -27.5t30 -32t35 -27.5t45.5 -11.5q31 0 49 21t22 41.5t4 43.5h40q0 -74 -31.5 -109t-83.5 -35q-31 0 -55.5 11.5t-40 27.5t-30 32t-35 27.5t-45.5 11.5q-31 0 -49 -21t-22 -41.5t-4 -43.5h-40z" />
<glyph unicode="&#xa1;" horiz-adv-x="281" d="M111 441v59h57v-59h-57zM119 -200v525h43v-525h-43z" />
<glyph unicode="&#xa2;" horiz-adv-x="527" d="M254 -40v111q-97 9 -148 86.5t-51 192.5t51 192.5t148 86.5v111h43v-111q115 -11 175 -142l-41 -16q-52 116 -153 116q-89 0 -133.5 -66t-44.5 -171t44.5 -171t133.5 -66q101 0 153 116l41 -16q-60 -132 -175 -142v-111h-43z" />
<glyph unicode="&#xa3;" horiz-adv-x="580" d="M57 0v40h65v293h-45v40h45v162q0 75 56 126t141 51q40 0 76.5 -13t53.5 -25l17 -13l-29 -33q-6 5 -16 12t-41 18.5t-62 11.5q-72 0 -112.5 -40t-40.5 -99v-158h198v-40h-198v-293h305q22 0 22 22v49h42v-53q0 -31 -13.5 -44.5t-44.5 -13.5h-419z" />
<glyph unicode="&#xa5;" d="M117 222v40h162v42l-29 48h-138v40h113v2l-148 244q-13 22 -51 22h-7v40h5q39 0 59 -11t42 -47l131 -218l43 -78h2q22 44 43 78l131 218q22 36 42 47t59 11h5v-40h-8q-38 0 -51 -22l-147 -244v-2h108v-40h-133l-28 -48v-42h161v-40h-161v-222h-43v222h-162z" />
<glyph unicode="&#xa7;" horiz-adv-x="376" d="M139 62l-67 474q-2 16 -2 25q0 65 44.5 108t113.5 43q24 0 47 -8t35 -16l11 -9l-26 -32q-29 24 -68 24q-48 0 -80.5 -31t-32.5 -82q0 -7 2 -21l65 -475h-42zM60 -29l26 32q29 -24 68 -24q48 0 80 31t32 82q0 14 -1 21l-65 475h42l67 -474q2 -18 2 -25q0 -65 -45 -108 t-113 -43q-24 0 -47 8t-34 16z" />
<glyph unicode="&#xa8;" horiz-adv-x="486" d="M307 788v73h46v-73h-46zM170 788v73h46v-73h-46z" />
<glyph unicode="&#xa9;" horiz-adv-x="798" d="M45 350q0 151 103 256.5t249 105.5q149 0 252.5 -105.5t103.5 -256.5q0 -152 -103.5 -257t-252.5 -105q-147 0 -249.5 105t-102.5 257zM90 350q0 -136 88.5 -228t218.5 -92q132 0 221.5 92t89.5 228q0 135 -89.5 227.5t-221.5 92.5q-130 0 -218.5 -92.5t-88.5 -227.5z M194 349q0 85 57 148t158 63q29 0 56.5 -9t46 -22t33 -26t21.5 -22l6 -9l-33 -29q-5 8 -15.5 20.5t-44 33t-69.5 20.5q-81 0 -126 -49.5t-45 -117.5t45 -117.5t126 -49.5q37 0 69 18.5t46 36.5l14 19l33 -29q-2 -4 -7 -9.5t-21 -21t-33.5 -27t-45 -21t-56.5 -9.5 q-101 0 -158 62t-57 147z" />
<glyph unicode="&#xaa;" horiz-adv-x="413" d="M176 382q-46 0 -78.5 24.5t-32.5 68.5q0 111 195 111h13q-1 48 -19.5 67.5t-61.5 19.5q-60 0 -60 -22v-27h-39v37q0 26 34.5 37.5t65.5 11.5q68 0 93.5 -31t25.5 -89v-157q0 -8 7 -8h31v-37h-38q-38 0 -38 41v13h-2q-1 -2 -3 -6.5t-10.5 -14.5t-18 -18t-27 -14.5 t-37.5 -6.5zM176 419q45 0 71 38.5t26 91.5h-13q-28 0 -46.5 -1.5t-47.5 -7.5t-44.5 -22t-15.5 -41q0 -23 18.5 -40.5t51.5 -17.5zM62 263v37h294v-37h-294z" />
<glyph unicode="&#xab;" horiz-adv-x="481" d="M194 282l164 206h53l-164 -206l164 -205h-53zM198 77l-164 205l164 206h53l-164 -206l164 -205h-53z" />
<glyph unicode="&#xac;" d="M72 343v40h456v-219h-42v179h-414z" />
<glyph unicode="&#xad;" horiz-adv-x="432" d="M78 263v40h276v-40h-276z" />
<glyph unicode="&#xae;" horiz-adv-x="798" d="M45 350q0 151 103 256.5t249 105.5q149 0 252.5 -105.5t103.5 -256.5q0 -152 -103.5 -257t-252.5 -105q-147 0 -249.5 105t-102.5 257zM90 350q0 -136 88.5 -228t218.5 -92q132 0 221.5 92t89.5 228q0 135 -89.5 227.5t-221.5 92.5q-130 0 -218.5 -92.5t-88.5 -227.5z M281 150v360h-37v40h170q51 0 83.5 -32t32.5 -84q0 -42 -22 -70.5t-55 -36.5v-2q10 -4 19 -21l51 -103q6 -13 29 -13h10v-38h-21q-25 0 -36 5t-21 25l-57 113q-8 15 -15.5 19.5t-21.5 4.5h-65v-167h-44zM325 355h84q35 0 55.5 21t20.5 58q0 36 -20.5 56t-55.5 20h-84v-155z " />
<glyph unicode="&#xaf;" horiz-adv-x="459" d="M116 786v40h239v-40h-239z" />
<glyph unicode="&#xb0;" horiz-adv-x="371" d="M185 449q-54 0 -92 38t-38 92t38 92.5t92 38.5t92.5 -38.5t38.5 -92.5t-38.5 -92t-92.5 -38zM185 489q37 0 62.5 26t25.5 64t-25.5 64.5t-62.5 26.5t-62 -26.5t-25 -64.5t25 -64t62 -26z" />
<glyph unicode="&#xb1;" d="M42 263v40h237v263h43v-263h236v-40h-236v-263h-43v263h-237zM62 -113h476v-40h-476v40z" />
<glyph unicode="&#xb2;" horiz-adv-x="396" d="M93 264q-42 0 -42 42q0 31 10 55.5t31.5 44.5t38 31t47.5 28q26 15 39.5 23.5t31.5 24t25.5 33t7.5 39.5q0 36 -24.5 60t-66.5 24q-31 0 -54 -13.5t-23 -31.5v-27h-39v33q0 38 38.5 58t77.5 20q63 0 97.5 -35.5t34.5 -87.5q0 -29 -9.5 -52t-32 -42.5t-37.5 -29.5t-47 -28 q-27 -16 -40.5 -25t-32 -25t-26.5 -34t-8 -40q0 -7 7 -7h200q6 0 6 7v36h39v-39q0 -42 -42 -42h-207z" />
<glyph unicode="&#xb3;" horiz-adv-x="396" d="M189 256q-37 0 -72 16t-52 32l-17 17l29 29q5 -6 14.5 -15t39 -24.5t59.5 -15.5q39 0 69 27.5t30 70.5t-31.5 68.5t-74.5 25.5h-34l-9 26l106 125l25 25v2q-18 -3 -38 -3h-112q-11 0 -11 -11v-30h-39v32q0 27 10 37t37 10h209v-27l-129 -150q47 0 89.5 -33.5t42.5 -96.5 q0 -57 -41.5 -97t-99.5 -40z" />
<glyph unicode="&#xb4;" horiz-adv-x="357" d="M111 750l67 111h56l-79 -111h-44z" />
<glyph unicode="&#xb6;" horiz-adv-x="551" d="M285 -50v291q-98 0 -169 67t-71 163t70.5 162.5t168.5 66.5h210v-40h-167v-710h-42zM389 -50v647h42v-647h-42z" />
<glyph unicode="&#xb7;" horiz-adv-x="193" d="M68 257v59h57v-59h-57z" />
<glyph unicode="&#xb8;" horiz-adv-x="410" d="M156 18l32 -5v-8l-12 -65q31 -5 50 -23t19 -45q0 -39 -26 -57.5t-65 -18.5l-44 4v38q18 -5 41 -5q54 0 54 37q0 38 -61 38l-12 -1z" />
<glyph unicode="&#xb9;" horiz-adv-x="396" d="M84 264v38h95v307l1 35h-2q-6 -11 -14 -19l-51 -50l-27 27l97 98h36v-398h94v-38h-229z" />
<glyph unicode="&#xba;" horiz-adv-x="456" d="M228 383q-68 0 -115.5 48t-47.5 118q0 68 47.5 115t115.5 47t115.5 -47t47.5 -115q0 -70 -47.5 -118t-115.5 -48zM228 420q52 0 88 37t36 92q0 54 -36 89.5t-88 35.5t-88 -35.5t-36 -89.5q0 -55 36 -92t88 -37zM83 263v37h294v-37h-294z" />
<glyph unicode="&#xbb;" horiz-adv-x="481" d="M230 77l164 205l-164 206h53l164 -206l-164 -205h-53zM70 77l164 205l-164 206h53l164 -206l-164 -205h-53z" />
<glyph unicode="&#xbc;" horiz-adv-x="866" d="M255 0l306 700h46l-305 -700h-47zM79 264v38h95v307l1 35h-2q-6 -11 -14 -19l-51 -50l-27 27l97 98h36v-398h94v-38h-229zM478 121v28l222 287h35v-277h68v-38h-68v-121h-39v121h-218zM532 158q15 1 22 1h142v168l1 41h-2q-7 -13 -17 -26l-131 -168l-15 -15v-1z" />
<glyph unicode="&#xbd;" horiz-adv-x="866" d="M245 0l306 700h46l-305 -700h-47zM79 264v38h95v307l1 35h-2q-6 -11 -14 -19l-51 -50l-27 27l97 98h36v-398h94v-38h-229zM498 42q0 31 10 55.5t31.5 44.5t38 31t47.5 28q26 15 39.5 23.5t31.5 24t25.5 33t7.5 39.5q0 36 -24.5 60t-66.5 24q-31 0 -54 -13.5t-23 -31.5 v-27h-39v33q0 38 38.5 58t77.5 20q63 0 97.5 -35.5t34.5 -87.5q0 -29 -9.5 -52t-32 -42.5t-37.5 -29.5t-47 -28q-27 -16 -40.5 -25t-32 -25t-26.5 -34t-8 -40q0 -7 7 -7h200q6 0 6 7v36h39v-39q0 -42 -42 -42h-207q-42 0 -42 42z" />
<glyph unicode="&#xbe;" horiz-adv-x="866" d="M255 0l306 700h46l-305 -700h-47zM205 256q-37 0 -72 16t-52 32l-17 17l29 29q5 -6 14.5 -15t39 -24.5t59.5 -15.5q39 0 69 27.5t30 70.5t-31.5 68.5t-74.5 25.5h-34l-9 26l106 125l25 25v2q-18 -3 -38 -3h-112q-11 0 -11 -11v-30h-39v32q0 27 10 37t37 10h209v-27 l-129 -150q47 0 89.5 -33.5t42.5 -96.5q0 -57 -41.5 -97t-99.5 -40zM478 121v28l222 287h35v-277h68v-38h-68v-121h-39v121h-218zM532 158q15 1 22 1h142v168l1 41h-2q-7 -13 -17 -26l-131 -168l-15 -15v-1z" />
<glyph unicode="&#xbf;" horiz-adv-x="411" d="M204 441v59h57v-59h-57zM30 -38q0 46 18.5 82.5t45 61.5t53.5 49t45.5 56.5t18.5 71.5v42h43v-42q0 -45 -18.5 -82.5t-45 -63.5t-52.5 -50.5t-44.5 -56.5t-18.5 -69q0 -55 41 -92t105 -37q32 0 64 10.5t47 21.5l16 10l23 -34q-7 -6 -19 -14t-51 -22t-79 -14 q-85 0 -138.5 49t-53.5 123z" />
<glyph unicode="&#xc0;" horiz-adv-x="649" d="M13 0v40h11q30 0 38 22l239 638h47l239 -638q8 -22 38 -22h11v-40h-12q-38 0 -53.5 11t-28.5 47l-69 184h-297l-69 -184q-13 -36 -28.5 -47t-53.5 -11h-12zM191 282h268l-107 284l-27 84h-2q-15 -54 -26 -84zM303 750l-79 111h56l67 -111h-44z" />
<glyph unicode="&#xc1;" horiz-adv-x="649" d="M13 0v40h11q30 0 38 22l239 638h47l239 -638q8 -22 38 -22h11v-40h-12q-38 0 -53.5 11t-28.5 47l-69 184h-297l-69 -184q-13 -36 -28.5 -47t-53.5 -11h-12zM191 282h268l-107 284l-27 84h-2q-15 -54 -26 -84zM303 750l67 111h56l-79 -111h-44z" />
<glyph unicode="&#xc2;" horiz-adv-x="649" d="M13 0v40h11q30 0 38 22l239 638h47l239 -638q8 -22 38 -22h11v-40h-12q-38 0 -53.5 11t-28.5 47l-69 184h-297l-69 -184q-13 -36 -28.5 -47t-53.5 -11h-12zM191 282h268l-107 284l-27 84h-2q-15 -54 -26 -84zM219 750l80 111h52l80 -111h-49l-56 80h-2l-56 -80h-49z" />
<glyph unicode="&#xc3;" horiz-adv-x="649" d="M13 0v40h11q30 0 38 22l239 638h47l239 -638q8 -22 38 -22h11v-40h-12q-38 0 -53.5 11t-28.5 47l-69 184h-297l-69 -184q-13 -36 -28.5 -47t-53.5 -11h-12zM191 282h268l-107 284l-27 84h-2q-15 -54 -26 -84zM178 753q0 108 83 108q23 0 41.5 -11.5t29 -25.5t25.5 -25.5 t30 -11.5q40 0 40 71h40q0 -108 -83 -108q-23 0 -41.5 11.5t-29 25.5t-25.5 25.5t-30 11.5q-40 0 -40 -71h-40z" />
<glyph unicode="&#xc4;" horiz-adv-x="649" d="M13 0v40h11q30 0 38 22l239 638h47l239 -638q8 -22 38 -22h11v-40h-12q-38 0 -53.5 11t-28.5 47l-69 184h-297l-69 -184q-13 -36 -28.5 -47t-53.5 -11h-12zM191 282h268l-107 284l-27 84h-2q-15 -54 -26 -84zM371 788v73h46v-73h-46zM234 788v73h46v-73h-46z" />
<glyph unicode="&#xc5;" horiz-adv-x="649" d="M13 0v40h11q30 0 38 22l239 638h47l239 -638q8 -22 38 -22h11v-40h-12q-38 0 -53.5 11t-28.5 47l-69 184h-297l-69 -184q-13 -36 -28.5 -47t-53.5 -11h-12zM191 282h268l-107 284l-27 84h-2q-15 -54 -26 -84zM325 740q-29 0 -48 19t-19 48t19 48t48 19t48 -19t19 -48 t-19 -48t-48 -19zM325 775q14 0 23 9t9 23q0 15 -9 24t-23 9t-23 -9t-9 -24q0 -14 9 -23t23 -9z" />
<glyph unicode="&#xc6;" horiz-adv-x="793" d="M13 0v40h6q30 0 38 22l239 638h383q31 0 44.5 -13.5t13.5 -44.5v-53h-42v49q0 22 -22 22h-266v-287h269v-40h-269v-271q0 -14 6.5 -18t23.5 -4h266q22 0 22 22v49h42v-53q0 -31 -13.5 -44.5t-44.5 -13.5h-275q-40 0 -55 11t-15 47v275h-159l-103 -275q-13 -36 -28.5 -47 t-53.5 -11h-7zM220 373h144v287h-37z" />
<glyph unicode="&#xc7;" horiz-adv-x="688" d="M41 355q0 152 98 254.5t244 102.5q56 0 113.5 -14.5t102 -49t44.5 -80.5v-50h-43v40q0 50 -70 81t-146 31q-127 0 -212.5 -90t-85.5 -225q0 -137 84.5 -231t213.5 -94q42 0 82 10.5t67.5 25t49 29t31.5 25.5l10 10l27 -31q-4 -4 -11 -11.5t-32.5 -26.5t-53.5 -33.5 t-73 -26.5t-93 -13l-9 -48q31 -5 50 -23t19 -45q0 -39 -26 -57.5t-65 -18.5l-44 4v38q18 -5 41 -5q54 0 54 37q0 38 -61 38l-12 -1l18 82q-137 12 -224.5 116t-87.5 250z" />
<glyph unicode="&#xc8;" horiz-adv-x="549" d="M110 58v602h-65v40h390q31 0 44.5 -13.5t13.5 -44.5v-53h-42v49q0 22 -22 22h-276v-287h279v-40h-279v-271q0 -22 22 -22h284q22 0 22 22v49h42v-53q0 -31 -13.5 -44.5t-44.5 -13.5h-297q-31 0 -44.5 13.5t-13.5 44.5zM271 750l-79 111h56l67 -111h-44z" />
<glyph unicode="&#xc9;" horiz-adv-x="549" d="M110 58v602h-65v40h390q31 0 44.5 -13.5t13.5 -44.5v-53h-42v49q0 22 -22 22h-276v-287h279v-40h-279v-271q0 -22 22 -22h284q22 0 22 22v49h42v-53q0 -31 -13.5 -44.5t-44.5 -13.5h-297q-31 0 -44.5 13.5t-13.5 44.5zM271 750l67 111h56l-79 -111h-44z" />
<glyph unicode="&#xca;" horiz-adv-x="549" d="M110 58v602h-65v40h390q31 0 44.5 -13.5t13.5 -44.5v-53h-42v49q0 22 -22 22h-276v-287h279v-40h-279v-271q0 -22 22 -22h284q22 0 22 22v49h42v-53q0 -31 -13.5 -44.5t-44.5 -13.5h-297q-31 0 -44.5 13.5t-13.5 44.5zM187 750l80 111h52l80 -111h-49l-56 80h-2l-56 -80 h-49z" />
<glyph unicode="&#xcb;" horiz-adv-x="549" d="M110 58v602h-65v40h390q31 0 44.5 -13.5t13.5 -44.5v-53h-42v49q0 22 -22 22h-276v-287h279v-40h-279v-271q0 -22 22 -22h284q22 0 22 22v49h42v-53q0 -31 -13.5 -44.5t-44.5 -13.5h-297q-31 0 -44.5 13.5t-13.5 44.5zM339 788v73h46v-73h-46zM202 788v73h46v-73h-46z " />
<glyph unicode="&#xcc;" horiz-adv-x="271" d="M50 0v40h64v620h-64v40h171v-40h-64v-620h64v-40h-171zM113 750l-79 111h56l67 -111h-44z" />
<glyph unicode="&#xcd;" horiz-adv-x="271" d="M50 0v40h64v620h-64v40h171v-40h-64v-620h64v-40h-171zM113 750l67 111h56l-79 -111h-44z" />
<glyph unicode="&#xce;" horiz-adv-x="271" d="M50 0v40h64v620h-64v40h171v-40h-64v-620h64v-40h-171zM29 750l80 111h52l80 -111h-49l-56 80h-2l-56 -80h-49z" />
<glyph unicode="&#xcf;" horiz-adv-x="271" d="M50 0v40h64v620h-64v40h171v-40h-64v-620h64v-40h-171zM181 788v73h46v-73h-46zM44 788v73h46v-73h-46z" />
<glyph unicode="&#xd0;" horiz-adv-x="715" d="M110 58v275h-50v40h50v287h-65v40h280q158 0 253.5 -93t95.5 -257q0 -165 -95 -257.5t-254 -92.5h-157q-31 0 -44.5 13.5t-13.5 44.5zM153 62q0 -22 22 -22h143q142 0 226.5 81t84.5 229q0 147 -84.5 228.5t-226.5 81.5h-165v-287h183v-40h-183v-271z" />
<glyph unicode="&#xd1;" horiz-adv-x="756" d="M45 0v40h43q22 0 22 22v638h40l399 -549l57 -88h2q-5 53 -5 88v491q0 31 13.5 44.5t44.5 13.5h50v-40h-43q-22 0 -22 -22v-638h-40l-399 549l-57 88h-2q5 -53 5 -88v-491q0 -31 -13.5 -44.5t-44.5 -13.5h-50zM243 753q0 108 83 108q23 0 41.5 -11.5t29 -25.5t25.5 -25.5 t30 -11.5q40 0 40 71h40q0 -108 -83 -108q-23 0 -41.5 11.5t-29 25.5t-25.5 25.5t-30 11.5q-40 0 -40 -71h-40z" />
<glyph unicode="&#xd2;" horiz-adv-x="790" d="M41 355q0 150 103.5 253.5t250.5 103.5t250.5 -103.5t103.5 -253.5q0 -154 -103.5 -260.5t-250.5 -106.5t-250.5 106.5t-103.5 260.5zM86 355q0 -137 90 -231t219 -94t219 94t90 231q0 133 -90 224t-219 91t-219 -91t-90 -224zM370 750l-79 111h56l67 -111h-44z" />
<glyph unicode="&#xd3;" horiz-adv-x="790" d="M41 355q0 150 103.5 253.5t250.5 103.5t250.5 -103.5t103.5 -253.5q0 -154 -103.5 -260.5t-250.5 -106.5t-250.5 106.5t-103.5 260.5zM86 355q0 -137 90 -231t219 -94t219 94t90 231q0 133 -90 224t-219 91t-219 -91t-90 -224zM370 750l67 111h56l-79 -111h-44z" />
<glyph unicode="&#xd4;" horiz-adv-x="790" d="M41 355q0 150 103.5 253.5t250.5 103.5t250.5 -103.5t103.5 -253.5q0 -154 -103.5 -260.5t-250.5 -106.5t-250.5 106.5t-103.5 260.5zM86 355q0 -137 90 -231t219 -94t219 94t90 231q0 133 -90 224t-219 91t-219 -91t-90 -224zM286 750l80 111h52l80 -111h-49l-56 80h-2 l-56 -80h-49z" />
<glyph unicode="&#xd5;" horiz-adv-x="790" d="M41 355q0 150 103.5 253.5t250.5 103.5t250.5 -103.5t103.5 -253.5q0 -154 -103.5 -260.5t-250.5 -106.5t-250.5 106.5t-103.5 260.5zM86 355q0 -137 90 -231t219 -94t219 94t90 231q0 133 -90 224t-219 91t-219 -91t-90 -224zM245 753q0 108 83 108q23 0 41.5 -11.5 t29 -25.5t25.5 -25.5t30 -11.5q40 0 40 71h40q0 -108 -83 -108q-23 0 -41.5 11.5t-29 25.5t-25.5 25.5t-30 11.5q-40 0 -40 -71h-40z" />
<glyph unicode="&#xd6;" horiz-adv-x="790" d="M41 355q0 150 103.5 253.5t250.5 103.5t250.5 -103.5t103.5 -253.5q0 -154 -103.5 -260.5t-250.5 -106.5t-250.5 106.5t-103.5 260.5zM86 355q0 -137 90 -231t219 -94t219 94t90 231q0 133 -90 224t-219 91t-219 -91t-90 -224zM438 788v73h46v-73h-46zM301 788v73h46v-73 h-46z" />
<glyph unicode="&#xd7;" d="M49 28l224 255l-224 255l28 28l223 -253l223 253l28 -28l-225 -255l225 -255l-28 -28l-223 253l-223 -253z" />
<glyph unicode="&#xd8;" horiz-adv-x="794" d="M119 1l51 71q-60 51 -93.5 124.5t-33.5 158.5q0 150 103.5 253.5t250.5 103.5q102 0 190 -56l49 68l34 -25l-48 -68q60 -50 94.5 -121.5t34.5 -154.5q0 -154 -103.5 -260.5t-250.5 -106.5q-108 0 -193 59l-50 -70zM195 107l368 515q-77 48 -166 48q-129 0 -219 -91 t-90 -224q0 -152 107 -248zM228 81q78 -51 169 -51q129 0 219 94t90 231q0 147 -110 241z" />
<glyph unicode="&#xd9;" horiz-adv-x="707" d="M102 235v403q0 22 -22 22h-43v40h50q31 0 44.5 -13.5t13.5 -44.5v-404q0 -95 56.5 -151.5t151.5 -56.5t152 57t57 153v402q0 31 13.5 44.5t44.5 13.5h50v-40h-43q-22 0 -22 -22v-403q0 -111 -69.5 -179t-181.5 -68t-182 68t-70 179zM333 750l-79 111h56l67 -111h-44z" />
<glyph unicode="&#xda;" horiz-adv-x="707" d="M102 235v403q0 22 -22 22h-43v40h50q31 0 44.5 -13.5t13.5 -44.5v-404q0 -95 56.5 -151.5t151.5 -56.5t152 57t57 153v402q0 31 13.5 44.5t44.5 13.5h50v-40h-43q-22 0 -22 -22v-403q0 -111 -69.5 -179t-181.5 -68t-182 68t-70 179zM333 750l67 111h56l-79 -111h-44z" />
<glyph unicode="&#xdb;" horiz-adv-x="707" d="M102 235v403q0 22 -22 22h-43v40h50q31 0 44.5 -13.5t13.5 -44.5v-404q0 -95 56.5 -151.5t151.5 -56.5t152 57t57 153v402q0 31 13.5 44.5t44.5 13.5h50v-40h-43q-22 0 -22 -22v-403q0 -111 -69.5 -179t-181.5 -68t-182 68t-70 179zM249 750l80 111h52l80 -111h-49 l-56 80h-2l-56 -80h-49z" />
<glyph unicode="&#xdc;" horiz-adv-x="707" d="M102 235v403q0 22 -22 22h-43v40h50q31 0 44.5 -13.5t13.5 -44.5v-404q0 -95 56.5 -151.5t151.5 -56.5t152 57t57 153v402q0 31 13.5 44.5t44.5 13.5h50v-40h-43q-22 0 -22 -22v-403q0 -111 -69.5 -179t-181.5 -68t-182 68t-70 179zM401 788v73h46v-73h-46zM264 788v73 h46v-73h-46z" />
<glyph unicode="&#xdd;" horiz-adv-x="582" d="M270 0v304l-198 329q-15 27 -49 27h-13v40h9q38 0 56 -10.5t41 -47.5l131 -218l43 -79h2q22 45 43 79l131 218q23 37 41 47.5t56 10.5h9v-40h-13q-34 0 -49 -27l-197 -329v-304h-43zM270 750l67 111h56l-79 -111h-44z" />
<glyph unicode="&#xde;" horiz-adv-x="572" d="M110 0v638q0 22 -22 22h-43v40h50q31 0 44.5 -13.5t13.5 -44.5v-72h177q93 0 153 -55.5t60 -148.5q0 -94 -60 -150t-155 -56h-175v-160h-43zM153 200h175q78 0 124 44t46 122t-46 121t-124 43h-175v-330z" />
<glyph unicode="&#xdf;" horiz-adv-x="540" d="M21 0v38h43q22 0 22 22v472q0 83 56.5 131.5t131.5 48.5q74 0 117.5 -41.5t43.5 -96.5q0 -35 -19 -65.5t-41.5 -48.5t-41.5 -40t-19 -42q0 -21 21.5 -43t52.5 -42.5t62.5 -43.5t53 -55.5t21.5 -70.5q0 -65 -45 -100t-109 -35q-43 0 -83 16.5t-58 32.5l-18 16l24 33 q7 -6 18.5 -15.5t47.5 -25.5t70 -16q47 0 78 23.5t31 70.5q0 31 -21.5 58t-52.5 48t-62.5 42t-53 48t-21.5 57q0 29 19 55.5t41.5 44t41.5 44t19 54.5q0 38 -31.5 67.5t-87.5 29.5q-57 0 -100.5 -38.5t-43.5 -103.5v-471q0 -31 -13.5 -44.5t-44.5 -13.5h-49z" />
<glyph unicode="&#xe0;" horiz-adv-x="515" d="M43 133q0 35 13 63t32 45.5t49.5 30.5t55.5 19t60 9.5t54 4t46 0.5h33v7q0 89 -33 125t-112 36q-35 0 -73 -11t-38 -38v-34h-42v46q0 27 31.5 45.5t64 24.5t58.5 6q106 0 146 -49.5t40 -139.5v-263q0 -22 22 -22h43v-38h-49q-31 0 -44.5 14t-13.5 47l2 45h-2 q1 0 -4.5 -12t-18.5 -29.5t-32 -35t-50.5 -29.5t-67.5 -12q-68 0 -119 37.5t-51 107.5zM87 136q0 -43 34 -76t94 -33q77 0 124 65.5t47 146.5v27h-32q-31 0 -50.5 -0.5t-56 -4t-60 -12t-49 -22t-38.5 -37t-13 -54.5zM233 589l-79 111h56l67 -111h-44z" />
<glyph unicode="&#xe1;" horiz-adv-x="515" d="M43 133q0 35 13 63t32 45.5t49.5 30.5t55.5 19t60 9.5t54 4t46 0.5h33v7q0 89 -33 125t-112 36q-35 0 -73 -11t-38 -38v-34h-42v46q0 27 31.5 45.5t64 24.5t58.5 6q106 0 146 -49.5t40 -139.5v-263q0 -22 22 -22h43v-38h-49q-31 0 -44.5 14t-13.5 47l2 45h-2 q1 0 -4.5 -12t-18.5 -29.5t-32 -35t-50.5 -29.5t-67.5 -12q-68 0 -119 37.5t-51 107.5zM87 136q0 -43 34 -76t94 -33q77 0 124 65.5t47 146.5v27h-32q-31 0 -50.5 -0.5t-56 -4t-60 -12t-49 -22t-38.5 -37t-13 -54.5zM233 589l67 111h56l-79 -111h-44z" />
<glyph unicode="&#xe2;" horiz-adv-x="515" d="M43 133q0 35 13 63t32 45.5t49.5 30.5t55.5 19t60 9.5t54 4t46 0.5h33v7q0 89 -33 125t-112 36q-35 0 -73 -11t-38 -38v-34h-42v46q0 27 31.5 45.5t64 24.5t58.5 6q106 0 146 -49.5t40 -139.5v-263q0 -22 22 -22h43v-38h-49q-31 0 -44.5 14t-13.5 47l2 45h-2 q1 0 -4.5 -12t-18.5 -29.5t-32 -35t-50.5 -29.5t-67.5 -12q-68 0 -119 37.5t-51 107.5zM87 136q0 -43 34 -76t94 -33q77 0 124 65.5t47 146.5v27h-32q-31 0 -50.5 -0.5t-56 -4t-60 -12t-49 -22t-38.5 -37t-13 -54.5zM149 589l80 111h52l80 -111h-49l-56 80h-2l-56 -80h-49z " />
<glyph unicode="&#xe3;" horiz-adv-x="515" d="M43 133q0 35 13 63t32 45.5t49.5 30.5t55.5 19t60 9.5t54 4t46 0.5h33v7q0 89 -33 125t-112 36q-35 0 -73 -11t-38 -38v-34h-42v46q0 27 31.5 45.5t64 24.5t58.5 6q106 0 146 -49.5t40 -139.5v-263q0 -22 22 -22h43v-38h-49q-31 0 -44.5 14t-13.5 47l2 45h-2 q1 0 -4.5 -12t-18.5 -29.5t-32 -35t-50.5 -29.5t-67.5 -12q-68 0 -119 37.5t-51 107.5zM87 136q0 -43 34 -76t94 -33q77 0 124 65.5t47 146.5v27h-32q-31 0 -50.5 -0.5t-56 -4t-60 -12t-49 -22t-38.5 -37t-13 -54.5zM108 592q0 108 83 108q23 0 41.5 -11.5t29 -25.5 t25.5 -25.5t30 -11.5q40 0 40 71h40q0 -108 -83 -108q-23 0 -41.5 11.5t-29 25.5t-25.5 25.5t-30 11.5q-40 0 -40 -71h-40z" />
<glyph unicode="&#xe4;" horiz-adv-x="515" d="M43 133q0 35 13 63t32 45.5t49.5 30.5t55.5 19t60 9.5t54 4t46 0.5h33v7q0 89 -33 125t-112 36q-35 0 -73 -11t-38 -38v-34h-42v46q0 27 31.5 45.5t64 24.5t58.5 6q106 0 146 -49.5t40 -139.5v-263q0 -22 22 -22h43v-38h-49q-31 0 -44.5 14t-13.5 47l2 45h-2 q1 0 -4.5 -12t-18.5 -29.5t-32 -35t-50.5 -29.5t-67.5 -12q-68 0 -119 37.5t-51 107.5zM87 136q0 -43 34 -76t94 -33q77 0 124 65.5t47 146.5v27h-32q-31 0 -50.5 -0.5t-56 -4t-60 -12t-49 -22t-38.5 -37t-13 -54.5zM301 627v73h46v-73h-46zM164 627v73h46v-73h-46z" />
<glyph unicode="&#xe5;" horiz-adv-x="515" d="M43 133q0 35 13 63t32 45.5t49.5 30.5t55.5 19t60 9.5t54 4t46 0.5h33v7q0 89 -33 125t-112 36q-35 0 -73 -11t-38 -38v-34h-42v46q0 27 31.5 45.5t64 24.5t58.5 6q106 0 146 -49.5t40 -139.5v-263q0 -22 22 -22h43v-38h-49q-31 0 -44.5 14t-13.5 47l2 45h-2 q1 0 -4.5 -12t-18.5 -29.5t-32 -35t-50.5 -29.5t-67.5 -12q-68 0 -119 37.5t-51 107.5zM87 136q0 -43 34 -76t94 -33q77 0 124 65.5t47 146.5v27h-32q-31 0 -50.5 -0.5t-56 -4t-60 -12t-49 -22t-38.5 -37t-13 -54.5zM255 579q-29 0 -48 19.5t-19 47.5t19 47.5t48 19.5 t48 -19.5t19 -47.5t-19 -47.5t-48 -19.5zM255 614q14 0 23 9t9 23q0 15 -9 24t-23 9t-23 -9t-9 -24q0 -14 9 -23t23 -9z" />
<glyph unicode="&#xe6;" horiz-adv-x="873" d="M43 133q0 34 11 61t27.5 44t43.5 29.5t50.5 18.5t58.5 9.5t56.5 4t54.5 0.5h40v12q0 89 -33 125t-111 36q-36 0 -73.5 -11t-37.5 -38v-34h-42v46q0 35 49 55.5t105 20.5q82 0 122.5 -30t53.5 -87h2q62 117 198 117q96 0 149 -64t53 -159l-2 -28h-391q0 -110 56.5 -171 t147.5 -61q43 0 81.5 15.5t55.5 31.5l18 16l23 -35q-8 -8 -22.5 -19.5t-61 -30.5t-94.5 -19q-78 0 -138 40.5t-87 112.5h-2q-3 -15 -13.5 -36t-31 -49.5t-58.5 -48t-86 -19.5q-73 0 -122.5 38t-49.5 107zM431 300h345q-4 86 -50 129t-111 43q-72 0 -122 -44t-62 -128z M87 136q0 -45 34 -77t94 -32q77 0 123.5 65.5t46.5 146.5v22h-69q-34 0 -59.5 -1.5t-60 -8.5t-56 -19.5t-37.5 -37t-16 -58.5z" />
<glyph unicode="&#xe7;" horiz-adv-x="524" d="M44 249q0 116 75.5 189.5t182.5 73.5q23 0 50.5 -5t57 -16t49 -33t19.5 -50v-38h-42v29q0 33 -45 52.5t-89 19.5q-90 0 -152 -61.5t-62 -160.5q0 -98 62 -159t152 -61q49 0 90.5 18t59.5 36l17 18l22 -35q-3 -3 -8 -8.5t-23 -19t-38.5 -23.5t-54 -18.5t-69.5 -8.5l-9 -48 q31 -5 50 -23t19 -45q0 -39 -26 -57.5t-65 -18.5l-44 4v38q18 -5 41 -5q54 0 54 37q0 38 -61 38l-12 -1l18 84q-95 12 -157 82.5t-62 175.5z" />
<glyph unicode="&#xe8;" horiz-adv-x="544" d="M44 249q0 122 71 192.5t172 70.5q97 0 150.5 -65.5t53.5 -162.5l-2 -27h-401q0 -105 61.5 -166.5t152.5 -61.5q43 0 81.5 15.5t56.5 31.5l17 16l23 -35q-8 -8 -22.5 -19.5t-61 -30.5t-94.5 -19q-109 0 -183.5 72.5t-74.5 188.5zM91 296h356q-4 87 -49 132t-112 45 q-73 0 -127.5 -46.5t-67.5 -130.5zM263 589l-79 111h56l67 -111h-44z" />
<glyph unicode="&#xe9;" horiz-adv-x="544" d="M44 249q0 122 71 192.5t172 70.5q97 0 150.5 -65.5t53.5 -162.5l-2 -27h-401q0 -105 61.5 -166.5t152.5 -61.5q43 0 81.5 15.5t56.5 31.5l17 16l23 -35q-8 -8 -22.5 -19.5t-61 -30.5t-94.5 -19q-109 0 -183.5 72.5t-74.5 188.5zM91 296h356q-4 87 -49 132t-112 45 q-73 0 -127.5 -46.5t-67.5 -130.5zM263 589l67 111h56l-79 -111h-44z" />
<glyph unicode="&#xea;" horiz-adv-x="544" d="M44 249q0 122 71 192.5t172 70.5q97 0 150.5 -65.5t53.5 -162.5l-2 -27h-401q0 -105 61.5 -166.5t152.5 -61.5q43 0 81.5 15.5t56.5 31.5l17 16l23 -35q-8 -8 -22.5 -19.5t-61 -30.5t-94.5 -19q-109 0 -183.5 72.5t-74.5 188.5zM91 296h356q-4 87 -49 132t-112 45 q-73 0 -127.5 -46.5t-67.5 -130.5zM179 589l80 111h52l80 -111h-49l-56 80h-2l-56 -80h-49z" />
<glyph unicode="&#xeb;" horiz-adv-x="544" d="M44 249q0 122 71 192.5t172 70.5q97 0 150.5 -65.5t53.5 -162.5l-2 -27h-401q0 -105 61.5 -166.5t152.5 -61.5q43 0 81.5 15.5t56.5 31.5l17 16l23 -35q-8 -8 -22.5 -19.5t-61 -30.5t-94.5 -19q-109 0 -183.5 72.5t-74.5 188.5zM91 296h356q-4 87 -49 132t-112 45 q-73 0 -127.5 -46.5t-67.5 -130.5zM331 627v73h46v-73h-46zM194 627v73h46v-73h-46z" />
<glyph unicode="&#xec;" horiz-adv-x="230" d="M95 58v382q0 22 -22 22h-43v38h49q31 0 44.5 -13.5t13.5 -44.5v-382q0 -22 22 -22h43v-38h-49q-31 0 -44.5 13.5t-13.5 44.5zM87 589l-79 111h56l67 -111h-44z" />
<glyph unicode="&#xed;" horiz-adv-x="230" d="M95 58v382q0 22 -22 22h-43v38h49q31 0 44.5 -13.5t13.5 -44.5v-382q0 -22 22 -22h43v-38h-49q-31 0 -44.5 13.5t-13.5 44.5zM87 589l67 111h56l-79 -111h-44z" />
<glyph unicode="&#xee;" horiz-adv-x="230" d="M95 58v382q0 22 -22 22h-43v38h49q31 0 44.5 -13.5t13.5 -44.5v-382q0 -22 22 -22h43v-38h-49q-31 0 -44.5 13.5t-13.5 44.5zM3 589l80 111h52l80 -111h-49l-56 80h-2l-56 -80h-49z" />
<glyph unicode="&#xef;" horiz-adv-x="230" d="M95 58v382q0 22 -22 22h-43v38h49q31 0 44.5 -13.5t13.5 -44.5v-382q0 -22 22 -22h43v-38h-49q-31 0 -44.5 13.5t-13.5 44.5zM140 627v73h46v-73h-46zM28 627v73h46v-73h-46z" />
<glyph unicode="&#xf0;" horiz-adv-x="556" d="M37 230q0 97 63.5 167.5t177.5 70.5q49 0 89.5 -16.5t56.5 -33.5l16 -16h2q-36 113 -137 183l-172 -80l-17 37l146 68q-66 35 -153 57l12 38q114 -29 188 -74l123 58l17 -37l-101 -47q156 -119 156 -335q0 -52 -14.5 -100.5t-43 -90t-76.5 -66.5t-108 -25 q-103 0 -164 72.5t-61 169.5zM81 230q0 -81 50 -141.5t133 -60.5q65 0 111 37.5t65.5 89t19.5 108.5q0 72 -50.5 118.5t-132.5 46.5q-94 0 -145 -58.5t-51 -139.5z" />
<glyph unicode="&#xf1;" horiz-adv-x="593" d="M89 0v440q0 22 -22 22h-43v38h49q31 0 44.5 -13t13.5 -42v-28l-2 -41h2q17 47 72 91.5t138 44.5q92 0 128.5 -49.5t36.5 -145.5v-257q0 -22 22 -22h43v-38h-49q-31 0 -44.5 13.5t-13.5 44.5v244q0 30 -2 51.5t-9 45t-20 38.5t-36.5 24.5t-55.5 9.5q-70 0 -126.5 -44.5 t-75.5 -114.5q-8 -28 -8 -68v-244h-42zM164 592q0 108 83 108q23 0 41.5 -11.5t29 -25.5t25.5 -25.5t30 -11.5q40 0 40 71h40q0 -108 -83 -108q-23 0 -41.5 11.5t-29 25.5t-25.5 25.5t-30 11.5q-40 0 -40 -71h-40z" />
<glyph unicode="&#xf2;" horiz-adv-x="606" d="M44 253q0 109 75.5 184t183.5 75t183.5 -75t75.5 -184q0 -111 -75.5 -188t-183.5 -77t-183.5 77t-75.5 188zM88 253q0 -95 62.5 -159.5t152.5 -64.5t152.5 64.5t62.5 159.5q0 92 -62.5 155t-152.5 63t-152.5 -63t-62.5 -155zM281 589l-79 111h56l67 -111h-44z" />
<glyph unicode="&#xf3;" horiz-adv-x="606" d="M44 253q0 109 75.5 184t183.5 75t183.5 -75t75.5 -184q0 -111 -75.5 -188t-183.5 -77t-183.5 77t-75.5 188zM88 253q0 -95 62.5 -159.5t152.5 -64.5t152.5 64.5t62.5 159.5q0 92 -62.5 155t-152.5 63t-152.5 -63t-62.5 -155zM281 589l67 111h56l-79 -111h-44z" />
<glyph unicode="&#xf4;" horiz-adv-x="606" d="M44 253q0 109 75.5 184t183.5 75t183.5 -75t75.5 -184q0 -111 -75.5 -188t-183.5 -77t-183.5 77t-75.5 188zM88 253q0 -95 62.5 -159.5t152.5 -64.5t152.5 64.5t62.5 159.5q0 92 -62.5 155t-152.5 63t-152.5 -63t-62.5 -155zM197 589l80 111h52l80 -111h-49l-56 80h-2 l-56 -80h-49z" />
<glyph unicode="&#xf5;" horiz-adv-x="606" d="M44 253q0 109 75.5 184t183.5 75t183.5 -75t75.5 -184q0 -111 -75.5 -188t-183.5 -77t-183.5 77t-75.5 188zM88 253q0 -95 62.5 -159.5t152.5 -64.5t152.5 64.5t62.5 159.5q0 92 -62.5 155t-152.5 63t-152.5 -63t-62.5 -155zM156 592q0 108 83 108q23 0 41.5 -11.5 t29 -25.5t25.5 -25.5t30 -11.5q40 0 40 71h40q0 -108 -83 -108q-23 0 -41.5 11.5t-29 25.5t-25.5 25.5t-30 11.5q-40 0 -40 -71h-40z" />
<glyph unicode="&#xf6;" horiz-adv-x="606" d="M44 253q0 109 75.5 184t183.5 75t183.5 -75t75.5 -184q0 -111 -75.5 -188t-183.5 -77t-183.5 77t-75.5 188zM88 253q0 -95 62.5 -159.5t152.5 -64.5t152.5 64.5t62.5 159.5q0 92 -62.5 155t-152.5 63t-152.5 -63t-62.5 -155zM349 627v73h46v-73h-46zM212 627v73h46v-73 h-46z" />
<glyph unicode="&#xf7;" d="M261 431v59h57v-59h-57zM52 263v40h476v-40h-476zM261 76v59h57v-59h-57z" />
<glyph unicode="&#xf8;" horiz-adv-x="606" d="M102 -3l36 51q-94 78 -94 205q0 109 75.5 184t183.5 75q76 0 138 -39l38 53l34 -26l-38 -53q87 -77 87 -194q0 -111 -75.5 -188t-183.5 -77q-72 0 -130 35l-37 -52zM162 82l255 357q-53 32 -114 32q-90 0 -152.5 -63t-62.5 -155q0 -104 74 -171zM197 57q48 -28 106 -28 q90 0 152.5 64.5t62.5 159.5q0 96 -68 159z" />
<glyph unicode="&#xf9;" horiz-adv-x="588" d="M87 183v257q0 22 -22 22h-43v38h49q31 0 44.5 -13t13.5 -42v-247q0 -30 2 -51.5t9 -45t20 -38.5t36.5 -24.5t55.5 -9.5q90 0 147.5 67.5t57.5 159.5v244h42v-440q0 -22 22 -22h43v-38h-49q-31 0 -44.5 13t-13.5 42v28l2 41h-2q-17 -47 -70.5 -91.5t-134.5 -44.5 q-89 0 -127 48t-38 147zM265 589l-79 111h56l67 -111h-44z" />
<glyph unicode="&#xfa;" horiz-adv-x="588" d="M87 183v257q0 22 -22 22h-43v38h49q31 0 44.5 -13t13.5 -42v-247q0 -30 2 -51.5t9 -45t20 -38.5t36.5 -24.5t55.5 -9.5q90 0 147.5 67.5t57.5 159.5v244h42v-440q0 -22 22 -22h43v-38h-49q-31 0 -44.5 13t-13.5 42v28l2 41h-2q-17 -47 -70.5 -91.5t-134.5 -44.5 q-89 0 -127 48t-38 147zM265 589l67 111h56l-79 -111h-44z" />
<glyph unicode="&#xfb;" horiz-adv-x="588" d="M87 183v257q0 22 -22 22h-43v38h49q31 0 44.5 -13t13.5 -42v-247q0 -30 2 -51.5t9 -45t20 -38.5t36.5 -24.5t55.5 -9.5q90 0 147.5 67.5t57.5 159.5v244h42v-440q0 -22 22 -22h43v-38h-49q-31 0 -44.5 13t-13.5 42v28l2 41h-2q-17 -47 -70.5 -91.5t-134.5 -44.5 q-89 0 -127 48t-38 147zM181 589l80 111h52l80 -111h-49l-56 80h-2l-56 -80h-49z" />
<glyph unicode="&#xfc;" horiz-adv-x="588" d="M87 183v257q0 22 -22 22h-43v38h49q31 0 44.5 -13t13.5 -42v-247q0 -30 2 -51.5t9 -45t20 -38.5t36.5 -24.5t55.5 -9.5q90 0 147.5 67.5t57.5 159.5v244h42v-440q0 -22 22 -22h43v-38h-49q-31 0 -44.5 13t-13.5 42v28l2 41h-2q-17 -47 -70.5 -91.5t-134.5 -44.5 q-89 0 -127 48t-38 147zM333 627v73h46v-73h-46zM196 627v73h46v-73h-46z" />
<glyph unicode="&#xfd;" horiz-adv-x="532" d="M36 -131q0 -2 9 -10.5t28 -18.5t38 -10q60 0 98 90l36 83l-181 435q-10 24 -38 24h-8v38h7q37 0 52 -10.5t30 -47.5l142 -341l17 -47h2q7 23 17 47l141 341q15 37 30 47.5t52 10.5h7v-38h-8q-28 0 -38 -24l-231 -555q-39 -93 -127 -93q-29 0 -54 12t-35 24l-11 11z M241 589l67 111h56l-79 -111h-44z" />
<glyph unicode="&#xfe;" horiz-adv-x="569" d="M86 -200v840q0 22 -22 22h-43v38h49q31 0 44.5 -13.5t13.5 -44.5v-194l-2 -44h2q47 108 177 108q101 0 159.5 -72t58.5 -190t-58.5 -190t-159.5 -72q-38 0 -70 11t-51 26t-32.5 30.5t-18.5 26.5l-5 11h-2q2 -18 2 -44v-249h-42zM127 250q0 -113 51.5 -167t126.5 -54 q78 0 126 60t48 161t-48 161t-126 60t-128 -54t-50 -167z" />
<glyph unicode="&#xff;" horiz-adv-x="532" d="M36 -131q0 -2 9 -10.5t28 -18.5t38 -10q60 0 98 90l36 83l-181 435q-10 24 -38 24h-8v38h7q37 0 52 -10.5t30 -47.5l142 -341l17 -47h2q7 23 17 47l141 341q15 37 30 47.5t52 10.5h7v-38h-8q-28 0 -38 -24l-231 -555q-39 -93 -127 -93q-29 0 -54 12t-35 24l-11 11z M309 627v73h46v-73h-46zM172 627v73h46v-73h-46z" />
<glyph unicode="&#x152;" horiz-adv-x="892" d="M41 350q0 153 93.5 256.5t238.5 103.5q20 0 72.5 -5t68.5 -5h264q31 0 44.5 -13.5t13.5 -44.5v-53h-42v49q0 22 -22 22h-266v-287h269v-40h-269v-293h296q22 0 22 22v49h42v-53q0 -58 -52 -58h-299q-16 0 -69 -5t-73 -5q-145 0 -238.5 103t-93.5 257zM86 350 q0 -138 79.5 -228t207.5 -90q53 0 90 8v620q-37 8 -90 8q-128 0 -207.5 -90.5t-79.5 -227.5z" />
<glyph unicode="&#x153;" horiz-adv-x="1017" d="M44 249q0 116 75.5 189.5t182.5 73.5q77 0 140 -40t94 -109h2q29 71 88.5 110t133.5 39q97 0 150.5 -65.5t53.5 -162.5l-2 -27h-401q3 -108 64 -168t150 -60q43 0 81.5 15.5t55.5 31.5l18 16l23 -35q-8 -8 -22.5 -19.5t-61 -30.5t-94.5 -19q-79 0 -142.5 40t-93.5 110h-2 q-31 -70 -94 -110t-141 -40q-108 0 -183 72.5t-75 188.5zM564 296h356q-4 87 -49 132t-112 45q-73 0 -127.5 -46.5t-67.5 -130.5zM88 249q0 -98 62 -159t152 -61t152.5 62t62.5 163q0 96 -63 156.5t-152 60.5q-90 0 -152 -62t-62 -160z" />
<glyph unicode="&#x178;" horiz-adv-x="582" d="M270 0v304l-198 329q-15 27 -49 27h-13v40h9q38 0 56 -10.5t41 -47.5l131 -218l43 -79h2q22 45 43 79l131 218q23 37 41 47.5t56 10.5h9v-40h-13q-34 0 -49 -27l-197 -329v-304h-43zM338 788v73h46v-73h-46zM201 788v73h46v-73h-46z" />
<glyph unicode="&#x2c6;" horiz-adv-x="456" d="M122 750l80 111h52l80 -111h-49l-56 80h-2l-56 -80h-49z" />
<glyph unicode="&#x2dc;" horiz-adv-x="467" d="M86 753q0 108 83 108q23 0 41.5 -11.5t29 -25.5t25.5 -25.5t30 -11.5q40 0 40 71h40q0 -108 -83 -108q-23 0 -41.5 11.5t-29 25.5t-25.5 25.5t-30 11.5q-40 0 -40 -71h-40z" />
<glyph unicode="&#x2000;" horiz-adv-x="437" />
<glyph unicode="&#x2001;" horiz-adv-x="874" />
<glyph unicode="&#x2002;" horiz-adv-x="437" />
<glyph unicode="&#x2003;" horiz-adv-x="874" />
<glyph unicode="&#x2004;" horiz-adv-x="291" />
<glyph unicode="&#x2005;" horiz-adv-x="218" />
<glyph unicode="&#x2006;" horiz-adv-x="145" />
<glyph unicode="&#x2007;" horiz-adv-x="145" />
<glyph unicode="&#x2008;" horiz-adv-x="109" />
<glyph unicode="&#x2009;" horiz-adv-x="174" />
<glyph unicode="&#x200a;" horiz-adv-x="48" />
<glyph unicode="&#x2010;" horiz-adv-x="432" d="M78 263v40h276v-40h-276z" />
<glyph unicode="&#x2011;" horiz-adv-x="432" d="M78 263v40h276v-40h-276z" />
<glyph unicode="&#x2012;" horiz-adv-x="432" d="M78 263v40h276v-40h-276z" />
<glyph unicode="&#x2013;" horiz-adv-x="632" d="M78 263v40h476v-40h-476z" />
<glyph unicode="&#x2014;" horiz-adv-x="832" d="M78 263v40h676v-40h-676z" />
<glyph unicode="&#x2018;" horiz-adv-x="197" d="M55 556l48 151h39l-35 -151h-52z" />
<glyph unicode="&#x2019;" horiz-adv-x="197" d="M55 558l35 151h52l-48 -151h-39z" />
<glyph unicode="&#x201a;" horiz-adv-x="197" d="M90 61h52l-48 -151h-39z" />
<glyph unicode="&#x201c;" horiz-adv-x="297" d="M155 556l48 151h39l-35 -151h-52zM55 556l48 151h39l-35 -151h-52z" />
<glyph unicode="&#x201d;" horiz-adv-x="297" d="M155 558l35 151h52l-48 -151h-39zM55 558l35 151h52l-48 -151h-39z" />
<glyph unicode="&#x201e;" horiz-adv-x="297" d="M155 -90l35 151h52l-48 -151h-39zM90 61h52l-48 -151h-39z" />
<glyph unicode="&#x2022;" horiz-adv-x="426" d="M213 159q-55 0 -93.5 38.5t-38.5 93.5t38.5 93.5t93.5 38.5t93.5 -38.5t38.5 -93.5t-38.5 -93.5t-93.5 -38.5z" />
<glyph unicode="&#x2026;" horiz-adv-x="739" d="M554 0v59h57v-59h-57zM341 0v59h57v-59h-57zM128 0v59h57v-59h-57z" />
<glyph unicode="&#x202f;" horiz-adv-x="174" />
<glyph unicode="&#x2039;" horiz-adv-x="321" d="M198 77l-164 205l164 206h53l-164 -206l164 -205h-53z" />
<glyph unicode="&#x203a;" horiz-adv-x="321" d="M70 77l164 205l-164 206h53l164 -206l-164 -205h-53z" />
<glyph unicode="&#x205f;" horiz-adv-x="218" />
<glyph unicode="&#x20ac;" horiz-adv-x="580" d="M40 273v40h54q-2 19 -2 37l3 52h-55v40h62q28 119 119.5 194.5t213.5 75.5q23 0 45.5 -3t33.5 -5l10 -3l-10 -42q-36 11 -79 11q-106 0 -183 -62.5t-104 -165.5h328l-8 -40h-328q-4 -21 -4 -50l2 -39h314l-7 -40h-301q23 -108 102 -175.5t189 -67.5q23 0 45 3t32 7l11 3 l12 -41q-43 -14 -100 -14q-126 0 -219 79.5t-117 205.5h-59z" />
<glyph unicode="&#x2122;" horiz-adv-x="970" d="M415 264v37h26q11 0 12 11l30 388h35l126 -270l14 -40h2q5 20 14 40l126 270h35l30 -388q1 -11 12 -11h26v-37h-29q-26 0 -35.5 9.5t-11.5 37.5l-23 281l1 28h-2l-127 -274h-34l-127 274h-2l1 -28l-23 -281q-2 -28 -11.5 -37.5t-35.5 -9.5h-29zM207 264v398h-110 q-11 0 -11 -11v-30h-39v32q0 27 10 37t37 10h266q27 0 37 -10t10 -37v-32h-39v30q0 11 -11 11h-111v-398h-39z" />
<glyph unicode="&#x25fc;" horiz-adv-x="500" d="M0 500h500v-500h-500v500z" />
<hkern u1="&#x20;" u2="&#x2026;" k="50" />
<hkern u1="&#x20;" u2="&#x201e;" k="50" />
<hkern u1="&#x20;" u2="&#x201d;" k="70" />
<hkern u1="&#x20;" u2="&#x201c;" k="70" />
<hkern u1="&#x20;" u2="&#x201a;" k="50" />
<hkern u1="&#x20;" u2="&#x2019;" k="70" />
<hkern u1="&#x20;" u2="&#x2018;" k="70" />
<hkern u1="&#x20;" u2="&#x178;" k="35" />
<hkern u1="&#x20;" u2="&#xdd;" k="35" />
<hkern u1="&#x20;" u2="Y" k="35" />
<hkern u1="&#x20;" u2="W" k="23" />
<hkern u1="&#x20;" u2="V" k="23" />
<hkern u1="&#x20;" u2="T" k="20" />
<hkern u1="&#x20;" u2="&#x2e;" k="50" />
<hkern u1="&#x20;" u2="&#x2c;" k="50" />
<hkern u1="&#x22;" u2="X" k="-20" />
<hkern u1="&#x22;" u2="&#x34;" k="50" />
<hkern u1="&#x24;" u2="&#x37;" k="20" />
<hkern u1="&#x27;" u2="X" k="-20" />
<hkern u1="&#x27;" u2="&#x34;" k="50" />
<hkern u1="&#x28;" u2="j" k="-15" />
<hkern u1="&#x28;" u2="&#x34;" k="40" />
<hkern u1="&#x2b;" u2="&#x37;" k="20" />
<hkern u1="&#x2c;" u2="&#x39;" k="5" />
<hkern u1="&#x2c;" u2="&#x37;" k="20" />
<hkern u1="&#x2c;" u2="&#x36;" k="10" />
<hkern u1="&#x2c;" u2="&#x34;" k="20" />
<hkern u1="&#x2c;" u2="&#x30;" k="20" />
<hkern u1="&#x2d;" u2="x" k="30" />
<hkern u1="&#x2d;" u2="X" k="10" />
<hkern u1="&#x2d;" u2="&#x39;" k="38" />
<hkern u1="&#x2d;" u2="&#x37;" k="73" />
<hkern u1="&#x2d;" u2="&#x35;" k="30" />
<hkern u1="&#x2d;" u2="&#x33;" k="40" />
<hkern u1="&#x2d;" u2="&#x31;" k="30" />
<hkern u1="&#x2e;" u2="&#x39;" k="5" />
<hkern u1="&#x2e;" u2="&#x37;" k="20" />
<hkern u1="&#x2e;" u2="&#x36;" k="10" />
<hkern u1="&#x2e;" u2="&#x34;" k="20" />
<hkern u1="&#x2e;" u2="&#x30;" k="20" />
<hkern u1="&#x2f;" u2="&#x37;" k="-10" />
<hkern u1="&#x30;" u2="&#x2026;" k="40" />
<hkern u1="&#x30;" u2="&#x201e;" k="40" />
<hkern u1="&#x30;" u2="&#x201a;" k="40" />
<hkern u1="&#x30;" u2="&#xb0;" k="10" />
<hkern u1="&#x30;" u2="&#x38;" k="11" />
<hkern u1="&#x30;" u2="&#x37;" k="30" />
<hkern u1="&#x30;" u2="&#x33;" k="7" />
<hkern u1="&#x30;" u2="&#x32;" k="11" />
<hkern u1="&#x30;" u2="&#x31;" k="15" />
<hkern u1="&#x30;" u2="&#x2e;" k="40" />
<hkern u1="&#x30;" u2="&#x2c;" k="40" />
<hkern u1="&#x31;" u2="&#x201d;" k="50" />
<hkern u1="&#x31;" u2="&#x201c;" k="50" />
<hkern u1="&#x31;" u2="&#x2019;" k="50" />
<hkern u1="&#x31;" u2="&#x2018;" k="50" />
<hkern u1="&#x31;" u2="&#x2014;" k="50" />
<hkern u1="&#x31;" u2="&#x2013;" k="50" />
<hkern u1="&#x31;" u2="&#xb0;" k="70" />
<hkern u1="&#x31;" u2="&#x39;" k="10" />
<hkern u1="&#x31;" u2="&#x38;" k="7" />
<hkern u1="&#x31;" u2="&#x37;" k="10" />
<hkern u1="&#x31;" u2="&#x36;" k="10" />
<hkern u1="&#x31;" u2="&#x35;" k="7" />
<hkern u1="&#x31;" u2="&#x34;" k="18" />
<hkern u1="&#x31;" u2="&#x33;" k="4" />
<hkern u1="&#x31;" u2="&#x30;" k="15" />
<hkern u1="&#x31;" u2="&#x2f;" k="-30" />
<hkern u1="&#x31;" u2="&#x2d;" k="50" />
<hkern u1="&#x31;" u2="&#x27;" k="60" />
<hkern u1="&#x31;" u2="&#x25;" k="20" />
<hkern u1="&#x31;" u2="&#x22;" k="60" />
<hkern u1="&#x32;" u2="&#x2014;" k="33" />
<hkern u1="&#x32;" u2="&#x2013;" k="33" />
<hkern u1="&#x32;" u2="&#x39;" k="18" />
<hkern u1="&#x32;" u2="&#x37;" k="3" />
<hkern u1="&#x32;" u2="&#x34;" k="20" />
<hkern u1="&#x32;" u2="&#x30;" k="5" />
<hkern u1="&#x32;" u2="&#x2d;" k="33" />
<hkern u1="&#x33;" u2="&#x39;" k="5" />
<hkern u1="&#x33;" u2="&#x37;" k="5" />
<hkern u1="&#x34;" u2="&#x2026;" k="10" />
<hkern u1="&#x34;" u2="&#x201e;" k="10" />
<hkern u1="&#x34;" u2="&#x201d;" k="20" />
<hkern u1="&#x34;" u2="&#x201c;" k="20" />
<hkern u1="&#x34;" u2="&#x201a;" k="10" />
<hkern u1="&#x34;" u2="&#x2019;" k="20" />
<hkern u1="&#x34;" u2="&#x2018;" k="20" />
<hkern u1="&#x34;" u2="&#xb0;" k="20" />
<hkern u1="&#x34;" u2="&#x39;" k="10" />
<hkern u1="&#x34;" u2="&#x34;" k="-30" />
<hkern u1="&#x34;" u2="&#x32;" k="-20" />
<hkern u1="&#x34;" u2="&#x31;" k="7" />
<hkern u1="&#x34;" u2="&#x2e;" k="10" />
<hkern u1="&#x34;" u2="&#x2c;" k="10" />
<hkern u1="&#x35;" u2="&#x2026;" k="13" />
<hkern u1="&#x35;" u2="&#x201e;" k="13" />
<hkern u1="&#x35;" u2="&#x201a;" k="13" />
<hkern u1="&#x35;" u2="&#xb0;" k="20" />
<hkern u1="&#x35;" u2="&#x39;" k="3" />
<hkern u1="&#x35;" u2="&#x37;" k="17" />
<hkern u1="&#x35;" u2="&#x35;" k="7" />
<hkern u1="&#x35;" u2="&#x33;" k="7" />
<hkern u1="&#x35;" u2="&#x32;" k="5" />
<hkern u1="&#x35;" u2="&#x31;" k="20" />
<hkern u1="&#x35;" u2="&#x30;" k="7" />
<hkern u1="&#x35;" u2="&#x2e;" k="13" />
<hkern u1="&#x35;" u2="&#x2c;" k="13" />
<hkern u1="&#x36;" u2="&#x2014;" k="13" />
<hkern u1="&#x36;" u2="&#x2013;" k="13" />
<hkern u1="&#x36;" u2="&#x39;" k="10" />
<hkern u1="&#x36;" u2="&#x37;" k="9" />
<hkern u1="&#x36;" u2="&#x35;" k="5" />
<hkern u1="&#x36;" u2="&#x33;" k="5" />
<hkern u1="&#x36;" u2="&#x30;" k="8" />
<hkern u1="&#x36;" u2="&#x2d;" k="13" />
<hkern u1="&#x37;" u2="&#x203a;" k="30" />
<hkern u1="&#x37;" u2="&#x2039;" k="30" />
<hkern u1="&#x37;" u2="&#x2026;" k="120" />
<hkern u1="&#x37;" u2="&#x201e;" k="120" />
<hkern u1="&#x37;" u2="&#x201d;" k="-35" />
<hkern u1="&#x37;" u2="&#x201c;" k="-35" />
<hkern u1="&#x37;" u2="&#x201a;" k="120" />
<hkern u1="&#x37;" u2="&#x2019;" k="-35" />
<hkern u1="&#x37;" u2="&#x2018;" k="-35" />
<hkern u1="&#x37;" u2="&#x2014;" k="54" />
<hkern u1="&#x37;" u2="&#x2013;" k="54" />
<hkern u1="&#x37;" u2="&#xbb;" k="30" />
<hkern u1="&#x37;" u2="&#xb0;" k="-30" />
<hkern u1="&#x37;" u2="&#xab;" k="30" />
<hkern u1="&#x37;" u2="&#x3f;" k="-20" />
<hkern u1="&#x37;" u2="&#x3e;" k="40" />
<hkern u1="&#x37;" u2="&#x3d;" k="40" />
<hkern u1="&#x37;" u2="&#x3c;" k="40" />
<hkern u1="&#x37;" u2="&#x3b;" k="15" />
<hkern u1="&#x37;" u2="&#x3a;" k="15" />
<hkern u1="&#x37;" u2="&#x39;" k="9" />
<hkern u1="&#x37;" u2="&#x38;" k="7" />
<hkern u1="&#x37;" u2="&#x37;" k="-5" />
<hkern u1="&#x37;" u2="&#x35;" k="3" />
<hkern u1="&#x37;" u2="&#x34;" k="58" />
<hkern u1="&#x37;" u2="&#x32;" k="7" />
<hkern u1="&#x37;" u2="&#x30;" k="20" />
<hkern u1="&#x37;" u2="&#x2f;" k="60" />
<hkern u1="&#x37;" u2="&#x2e;" k="120" />
<hkern u1="&#x37;" u2="&#x2d;" k="54" />
<hkern u1="&#x37;" u2="&#x2c;" k="120" />
<hkern u1="&#x37;" u2="&#x2b;" k="40" />
<hkern u1="&#x38;" u2="&#x39;" k="7" />
<hkern u1="&#x38;" u2="&#x37;" k="12" />
<hkern u1="&#x38;" u2="&#x34;" k="-3" />
<hkern u1="&#x38;" u2="&#x30;" k="11" />
<hkern u1="&#x39;" u2="&#x2026;" k="40" />
<hkern u1="&#x39;" u2="&#x201e;" k="40" />
<hkern u1="&#x39;" u2="&#x201a;" k="40" />
<hkern u1="&#x39;" u2="&#x38;" k="5" />
<hkern u1="&#x39;" u2="&#x37;" k="13" />
<hkern u1="&#x39;" u2="&#x33;" k="5" />
<hkern u1="&#x39;" u2="&#x32;" k="5" />
<hkern u1="&#x39;" u2="&#x30;" k="5" />
<hkern u1="&#x39;" u2="&#x2e;" k="40" />
<hkern u1="&#x39;" u2="&#x2c;" k="40" />
<hkern u1="&#x3c;" u2="&#x37;" k="20" />
<hkern u1="&#x3d;" u2="&#x37;" k="20" />
<hkern u1="&#x3e;" u2="&#x37;" k="20" />
<hkern u1="A" u2="X" k="10" />
<hkern u1="B" u2="&#x201d;" k="17" />
<hkern u1="B" u2="&#x201c;" k="17" />
<hkern u1="B" u2="&#x2019;" k="17" />
<hkern u1="B" u2="&#x2018;" k="17" />
<hkern u1="B" u2="&#x178;" k="25" />
<hkern u1="B" u2="&#xdd;" k="25" />
<hkern u1="B" u2="w" k="5" />
<hkern u1="B" u2="v" k="5" />
<hkern u1="B" u2="Y" k="25" />
<hkern u1="B" u2="W" k="12" />
<hkern u1="B" u2="V" k="12" />
<hkern u1="B" u2="T" k="19" />
<hkern u1="B" u2="&#x27;" k="6" />
<hkern u1="B" u2="&#x22;" k="6" />
<hkern u1="D" u2="i" k="-7" />
<hkern u1="D" u2="X" k="11" />
<hkern u1="F" u2="&#x2026;" k="100" />
<hkern u1="F" u2="&#x201e;" k="100" />
<hkern u1="F" u2="&#x201d;" k="-25" />
<hkern u1="F" u2="&#x201c;" k="-25" />
<hkern u1="F" u2="&#x201a;" k="100" />
<hkern u1="F" u2="&#x2019;" k="-25" />
<hkern u1="F" u2="&#x2018;" k="-25" />
<hkern u1="F" u2="&#x153;" k="5" />
<hkern u1="F" u2="&#x152;" k="10" />
<hkern u1="F" u2="&#xf8;" k="5" />
<hkern u1="F" u2="&#xf6;" k="5" />
<hkern u1="F" u2="&#xf5;" k="5" />
<hkern u1="F" u2="&#xf4;" k="5" />
<hkern u1="F" u2="&#xf3;" k="5" />
<hkern u1="F" u2="&#xf2;" k="5" />
<hkern u1="F" u2="&#xeb;" k="5" />
<hkern u1="F" u2="&#xea;" k="5" />
<hkern u1="F" u2="&#xe9;" k="5" />
<hkern u1="F" u2="&#xe8;" k="5" />
<hkern u1="F" u2="&#xe7;" k="5" />
<hkern u1="F" u2="&#xe6;" k="15" />
<hkern u1="F" u2="&#xe5;" k="15" />
<hkern u1="F" u2="&#xe4;" k="15" />
<hkern u1="F" u2="&#xe3;" k="15" />
<hkern u1="F" u2="&#xe2;" k="15" />
<hkern u1="F" u2="&#xe1;" k="15" />
<hkern u1="F" u2="&#xe0;" k="15" />
<hkern u1="F" u2="&#xd8;" k="10" />
<hkern u1="F" u2="&#xd6;" k="10" />
<hkern u1="F" u2="&#xd5;" k="10" />
<hkern u1="F" u2="&#xd4;" k="10" />
<hkern u1="F" u2="&#xd3;" k="10" />
<hkern u1="F" u2="&#xd2;" k="10" />
<hkern u1="F" u2="&#xc7;" k="10" />
<hkern u1="F" u2="&#xc6;" k="46" />
<hkern u1="F" u2="&#xc5;" k="46" />
<hkern u1="F" u2="&#xc4;" k="46" />
<hkern u1="F" u2="&#xc3;" k="46" />
<hkern u1="F" u2="&#xc2;" k="46" />
<hkern u1="F" u2="&#xc1;" k="46" />
<hkern u1="F" u2="&#xc0;" k="46" />
<hkern u1="F" u2="q" k="5" />
<hkern u1="F" u2="o" k="5" />
<hkern u1="F" u2="g" k="5" />
<hkern u1="F" u2="e" k="5" />
<hkern u1="F" u2="d" k="5" />
<hkern u1="F" u2="c" k="5" />
<hkern u1="F" u2="a" k="15" />
<hkern u1="F" u2="Q" k="10" />
<hkern u1="F" u2="O" k="10" />
<hkern u1="F" u2="N" k="7" />
<hkern u1="F" u2="M" k="7" />
<hkern u1="F" u2="J" k="18" />
<hkern u1="F" u2="G" k="10" />
<hkern u1="F" u2="C" k="10" />
<hkern u1="F" u2="A" k="46" />
<hkern u1="F" u2="&#x40;" k="5" />
<hkern u1="F" u2="&#x2e;" k="100" />
<hkern u1="F" u2="&#x2c;" k="100" />
<hkern u1="F" u2="&#x27;" k="-19" />
<hkern u1="F" u2="&#x22;" k="-19" />
<hkern u1="K" u2="x" k="5" />
<hkern u1="L" u2="&#x2a;" k="80" />
<hkern u1="M" u2="&#x201d;" k="29" />
<hkern u1="M" u2="&#x201c;" k="29" />
<hkern u1="M" u2="&#x2019;" k="29" />
<hkern u1="M" u2="&#x2018;" k="29" />
<hkern u1="M" u2="&#xfc;" k="-4" />
<hkern u1="M" u2="&#xfb;" k="-4" />
<hkern u1="M" u2="&#xfa;" k="-4" />
<hkern u1="M" u2="&#xf9;" k="-4" />
<hkern u1="M" u2="&#xf1;" k="-4" />
<hkern u1="M" u2="u" k="-4" />
<hkern u1="M" u2="r" k="-4" />
<hkern u1="M" u2="p" k="-4" />
<hkern u1="M" u2="n" k="-4" />
<hkern u1="M" u2="m" k="-4" />
<hkern u1="M" u2="T" k="17" />
<hkern u1="M" u2="&#x27;" k="30" />
<hkern u1="M" u2="&#x22;" k="30" />
<hkern u1="O" u2="i" k="-7" />
<hkern u1="O" u2="X" k="11" />
<hkern u1="P" u2="&#x2026;" k="105" />
<hkern u1="P" u2="&#x201e;" k="105" />
<hkern u1="P" u2="&#x201a;" k="105" />
<hkern u1="P" u2="&#x153;" k="20" />
<hkern u1="P" u2="&#xf8;" k="20" />
<hkern u1="P" u2="&#xf6;" k="20" />
<hkern u1="P" u2="&#xf5;" k="20" />
<hkern u1="P" u2="&#xf4;" k="20" />
<hkern u1="P" u2="&#xf3;" k="20" />
<hkern u1="P" u2="&#xf2;" k="20" />
<hkern u1="P" u2="&#xeb;" k="20" />
<hkern u1="P" u2="&#xea;" k="20" />
<hkern u1="P" u2="&#xe9;" k="20" />
<hkern u1="P" u2="&#xe8;" k="20" />
<hkern u1="P" u2="&#xe7;" k="20" />
<hkern u1="P" u2="&#xe6;" k="20" />
<hkern u1="P" u2="&#xe5;" k="20" />
<hkern u1="P" u2="&#xe4;" k="20" />
<hkern u1="P" u2="&#xe3;" k="20" />
<hkern u1="P" u2="&#xe2;" k="20" />
<hkern u1="P" u2="&#xe1;" k="20" />
<hkern u1="P" u2="&#xe0;" k="20" />
<hkern u1="P" u2="&#xc6;" k="60" />
<hkern u1="P" u2="&#xc5;" k="60" />
<hkern u1="P" u2="&#xc4;" k="60" />
<hkern u1="P" u2="&#xc3;" k="60" />
<hkern u1="P" u2="&#xc2;" k="60" />
<hkern u1="P" u2="&#xc1;" k="60" />
<hkern u1="P" u2="&#xc0;" k="60" />
<hkern u1="P" u2="z" k="5" />
<hkern u1="P" u2="s" k="11" />
<hkern u1="P" u2="q" k="20" />
<hkern u1="P" u2="o" k="20" />
<hkern u1="P" u2="g" k="20" />
<hkern u1="P" u2="e" k="20" />
<hkern u1="P" u2="d" k="20" />
<hkern u1="P" u2="c" k="20" />
<hkern u1="P" u2="a" k="20" />
<hkern u1="P" u2="N" k="7" />
<hkern u1="P" u2="M" k="7" />
<hkern u1="P" u2="J" k="20" />
<hkern u1="P" u2="A" k="60" />
<hkern u1="P" u2="&#x40;" k="20" />
<hkern u1="P" u2="&#x2e;" k="105" />
<hkern u1="P" u2="&#x2c;" k="105" />
<hkern u1="P" u2="&#x27;" k="-5" />
<hkern u1="P" u2="&#x22;" k="-5" />
<hkern u1="Q" u2="i" k="-7" />
<hkern u1="Q" u2="X" k="11" />
<hkern u1="T" u2="&#xef;" k="-30" />
<hkern u1="T" u2="j" k="40" />
<hkern u1="T" u2="i" k="40" />
<hkern u1="T" u2="&#x20;" k="20" />
<hkern u1="V" u2="&#x20;" k="23" />
<hkern u1="W" u2="&#x20;" k="23" />
<hkern u1="X" u2="&#x201d;" k="-13" />
<hkern u1="X" u2="&#x201c;" k="-13" />
<hkern u1="X" u2="&#x2019;" k="-13" />
<hkern u1="X" u2="&#x2018;" k="-13" />
<hkern u1="X" u2="&#x2014;" k="10" />
<hkern u1="X" u2="&#x2013;" k="10" />
<hkern u1="X" u2="&#x153;" k="7" />
<hkern u1="X" u2="&#x152;" k="11" />
<hkern u1="X" u2="&#xf8;" k="7" />
<hkern u1="X" u2="&#xf6;" k="7" />
<hkern u1="X" u2="&#xf5;" k="7" />
<hkern u1="X" u2="&#xf4;" k="7" />
<hkern u1="X" u2="&#xf3;" k="7" />
<hkern u1="X" u2="&#xf2;" k="7" />
<hkern u1="X" u2="&#xeb;" k="7" />
<hkern u1="X" u2="&#xea;" k="7" />
<hkern u1="X" u2="&#xe9;" k="7" />
<hkern u1="X" u2="&#xe8;" k="7" />
<hkern u1="X" u2="&#xe7;" k="7" />
<hkern u1="X" u2="&#xd8;" k="11" />
<hkern u1="X" u2="&#xd6;" k="11" />
<hkern u1="X" u2="&#xd5;" k="11" />
<hkern u1="X" u2="&#xd4;" k="11" />
<hkern u1="X" u2="&#xd3;" k="11" />
<hkern u1="X" u2="&#xd2;" k="11" />
<hkern u1="X" u2="&#xc7;" k="11" />
<hkern u1="X" u2="&#xc6;" k="10" />
<hkern u1="X" u2="&#xc5;" k="10" />
<hkern u1="X" u2="&#xc4;" k="10" />
<hkern u1="X" u2="&#xc3;" k="10" />
<hkern u1="X" u2="&#xc2;" k="10" />
<hkern u1="X" u2="&#xc1;" k="10" />
<hkern u1="X" u2="&#xc0;" k="10" />
<hkern u1="X" u2="&#x7d;" k="-20" />
<hkern u1="X" u2="&#x7c;" k="-20" />
<hkern u1="X" u2="q" k="7" />
<hkern u1="X" u2="o" k="7" />
<hkern u1="X" u2="g" k="7" />
<hkern u1="X" u2="e" k="7" />
<hkern u1="X" u2="d" k="7" />
<hkern u1="X" u2="c" k="7" />
<hkern u1="X" u2="]" k="-20" />
<hkern u1="X" u2="Q" k="11" />
<hkern u1="X" u2="O" k="11" />
<hkern u1="X" u2="G" k="11" />
<hkern u1="X" u2="C" k="11" />
<hkern u1="X" u2="A" k="10" />
<hkern u1="X" u2="&#x40;" k="7" />
<hkern u1="X" u2="&#x2d;" k="10" />
<hkern u1="X" u2="&#x29;" k="-20" />
<hkern u1="X" u2="&#x27;" k="-20" />
<hkern u1="X" u2="&#x22;" k="-20" />
<hkern u1="Y" u2="&#x20;" k="35" />
<hkern u1="[" u2="j" k="-15" />
<hkern u1="[" u2="&#x34;" k="40" />
<hkern u1="c" u2="&#xff;" k="5" />
<hkern u1="c" u2="&#xfd;" k="5" />
<hkern u1="c" u2="y" k="5" />
<hkern u1="c" u2="l" k="3" />
<hkern u1="c" u2="k" k="3" />
<hkern u1="c" u2="h" k="3" />
<hkern u1="c" u2="b" k="3" />
<hkern u1="c" u2="T" k="30" />
<hkern u1="k" u2="&#x201d;" k="-10" />
<hkern u1="k" u2="&#x201c;" k="-10" />
<hkern u1="k" u2="&#x2019;" k="-10" />
<hkern u1="k" u2="&#x2018;" k="-10" />
<hkern u1="k" u2="&#x153;" k="11" />
<hkern u1="k" u2="&#xff;" k="11" />
<hkern u1="k" u2="&#xfd;" k="11" />
<hkern u1="k" u2="&#xf8;" k="11" />
<hkern u1="k" u2="&#xf6;" k="11" />
<hkern u1="k" u2="&#xf5;" k="11" />
<hkern u1="k" u2="&#xf4;" k="11" />
<hkern u1="k" u2="&#xf3;" k="11" />
<hkern u1="k" u2="&#xf2;" k="11" />
<hkern u1="k" u2="&#xeb;" k="11" />
<hkern u1="k" u2="&#xea;" k="11" />
<hkern u1="k" u2="&#xe9;" k="11" />
<hkern u1="k" u2="&#xe8;" k="11" />
<hkern u1="k" u2="&#xe7;" k="11" />
<hkern u1="k" u2="&#xe6;" k="8" />
<hkern u1="k" u2="&#xe5;" k="8" />
<hkern u1="k" u2="&#xe4;" k="8" />
<hkern u1="k" u2="&#xe3;" k="8" />
<hkern u1="k" u2="&#xe2;" k="8" />
<hkern u1="k" u2="&#xe1;" k="8" />
<hkern u1="k" u2="&#xe0;" k="8" />
<hkern u1="k" u2="y" k="11" />
<hkern u1="k" u2="w" k="11" />
<hkern u1="k" u2="v" k="11" />
<hkern u1="k" u2="q" k="11" />
<hkern u1="k" u2="o" k="11" />
<hkern u1="k" u2="l" k="8" />
<hkern u1="k" u2="k" k="8" />
<hkern u1="k" u2="h" k="8" />
<hkern u1="k" u2="g" k="11" />
<hkern u1="k" u2="e" k="11" />
<hkern u1="k" u2="d" k="11" />
<hkern u1="k" u2="c" k="11" />
<hkern u1="k" u2="b" k="8" />
<hkern u1="k" u2="a" k="8" />
<hkern u1="k" u2="T" k="20" />
<hkern u1="k" u2="&#x40;" k="11" />
<hkern u1="x" u2="&#x201d;" k="-20" />
<hkern u1="x" u2="&#x201c;" k="-20" />
<hkern u1="x" u2="&#x2019;" k="-20" />
<hkern u1="x" u2="&#x2018;" k="-20" />
<hkern u1="x" u2="&#x2014;" k="30" />
<hkern u1="x" u2="&#x2013;" k="30" />
<hkern u1="x" u2="&#x2d;" k="30" />
<hkern u1="&#x7b;" u2="j" k="-15" />
<hkern u1="&#x7b;" u2="&#x34;" k="40" />
<hkern u1="&#x7c;" u2="j" k="-15" />
<hkern u1="&#x7c;" u2="&#x34;" k="40" />
<hkern u1="&#xa3;" u2="&#x37;" k="20" />
<hkern u1="&#xa5;" u2="&#x37;" k="-10" />
<hkern u1="&#xa5;" u2="&#x34;" k="30" />
<hkern u1="&#xab;" u2="&#x37;" k="30" />
<hkern u1="&#xbb;" u2="&#x37;" k="30" />
<hkern u1="&#xc0;" u2="X" k="10" />
<hkern u1="&#xc1;" u2="X" k="10" />
<hkern u1="&#xc2;" u2="X" k="10" />
<hkern u1="&#xc3;" u2="X" k="10" />
<hkern u1="&#xc4;" u2="X" k="10" />
<hkern u1="&#xc5;" u2="X" k="10" />
<hkern u1="&#xd0;" u2="i" k="-7" />
<hkern u1="&#xd0;" u2="X" k="11" />
<hkern u1="&#xd2;" u2="i" k="-7" />
<hkern u1="&#xd2;" u2="X" k="11" />
<hkern u1="&#xd3;" u2="i" k="-7" />
<hkern u1="&#xd3;" u2="X" k="11" />
<hkern u1="&#xd4;" u2="i" k="-7" />
<hkern u1="&#xd4;" u2="X" k="11" />
<hkern u1="&#xd5;" u2="i" k="-7" />
<hkern u1="&#xd5;" u2="X" k="11" />
<hkern u1="&#xd6;" u2="i" k="-7" />
<hkern u1="&#xd6;" u2="X" k="11" />
<hkern u1="&#xd8;" u2="i" k="-7" />
<hkern u1="&#xd8;" u2="X" k="11" />
<hkern u1="&#xdd;" u2="&#x20;" k="35" />
<hkern u1="&#x178;" u2="&#x20;" k="35" />
<hkern u1="&#x2013;" u2="x" k="30" />
<hkern u1="&#x2013;" u2="X" k="10" />
<hkern u1="&#x2013;" u2="&#x39;" k="38" />
<hkern u1="&#x2013;" u2="&#x37;" k="73" />
<hkern u1="&#x2013;" u2="&#x35;" k="30" />
<hkern u1="&#x2013;" u2="&#x33;" k="40" />
<hkern u1="&#x2013;" u2="&#x31;" k="30" />
<hkern u1="&#x2014;" u2="x" k="30" />
<hkern u1="&#x2014;" u2="X" k="10" />
<hkern u1="&#x2014;" u2="&#x39;" k="38" />
<hkern u1="&#x2014;" u2="&#x37;" k="73" />
<hkern u1="&#x2014;" u2="&#x35;" k="30" />
<hkern u1="&#x2014;" u2="&#x33;" k="40" />
<hkern u1="&#x2014;" u2="&#x31;" k="30" />
<hkern u1="&#x2018;" u2="X" k="-13" />
<hkern u1="&#x2018;" u2="&#x38;" k="30" />
<hkern u1="&#x2018;" u2="&#x37;" k="-20" />
<hkern u1="&#x2018;" u2="&#x36;" k="40" />
<hkern u1="&#x2018;" u2="&#x34;" k="90" />
<hkern u1="&#x2018;" u2="&#x30;" k="30" />
<hkern u1="&#x2019;" u2="X" k="-13" />
<hkern u1="&#x2019;" u2="&#x38;" k="30" />
<hkern u1="&#x2019;" u2="&#x37;" k="-20" />
<hkern u1="&#x2019;" u2="&#x36;" k="40" />
<hkern u1="&#x2019;" u2="&#x34;" k="90" />
<hkern u1="&#x2019;" u2="&#x30;" k="30" />
<hkern u1="&#x201a;" u2="&#x39;" k="5" />
<hkern u1="&#x201a;" u2="&#x37;" k="20" />
<hkern u1="&#x201a;" u2="&#x36;" k="10" />
<hkern u1="&#x201a;" u2="&#x34;" k="20" />
<hkern u1="&#x201a;" u2="&#x30;" k="20" />
<hkern u1="&#x201c;" u2="X" k="-13" />
<hkern u1="&#x201c;" u2="&#x38;" k="30" />
<hkern u1="&#x201c;" u2="&#x37;" k="-20" />
<hkern u1="&#x201c;" u2="&#x36;" k="40" />
<hkern u1="&#x201c;" u2="&#x34;" k="90" />
<hkern u1="&#x201c;" u2="&#x30;" k="30" />
<hkern u1="&#x201d;" u2="X" k="-13" />
<hkern u1="&#x201d;" u2="&#x38;" k="30" />
<hkern u1="&#x201d;" u2="&#x37;" k="-20" />
<hkern u1="&#x201d;" u2="&#x36;" k="40" />
<hkern u1="&#x201d;" u2="&#x34;" k="90" />
<hkern u1="&#x201d;" u2="&#x30;" k="30" />
<hkern u1="&#x201e;" u2="&#x39;" k="5" />
<hkern u1="&#x201e;" u2="&#x37;" k="20" />
<hkern u1="&#x201e;" u2="&#x36;" k="10" />
<hkern u1="&#x201e;" u2="&#x34;" k="20" />
<hkern u1="&#x201e;" u2="&#x30;" k="20" />
<hkern u1="&#x2026;" u2="&#x39;" k="5" />
<hkern u1="&#x2026;" u2="&#x37;" k="20" />
<hkern u1="&#x2026;" u2="&#x36;" k="10" />
<hkern u1="&#x2026;" u2="&#x34;" k="20" />
<hkern u1="&#x2026;" u2="&#x30;" k="20" />
<hkern u1="&#x2039;" u2="&#x37;" k="30" />
<hkern u1="&#x203a;" u2="&#x37;" k="30" />
<hkern g1="C,Ccedilla" 	g2="Y,Yacute,Ydieresis" 	k="10" />
<hkern g1="C,Ccedilla" 	g2="C,G,O,Q,Ccedilla,Ograve,Oacute,Ocircumflex,Otilde,Odieresis,Oslash,OE" 	k="5" />
<hkern g1="C,Ccedilla" 	g2="quotedbl,quotesingle" 	k="-23" />
<hkern g1="C,Ccedilla" 	g2="quoteleft,quoteright,quotedblleft,quotedblright" 	k="-25" />
<hkern g1="C,Ccedilla" 	g2="parenright,bracketright,bar,braceright" 	k="-30" />
<hkern g1="D,O,Q,Eth,Ograve,Oacute,Ocircumflex,Otilde,Odieresis,Oslash" 	g2="T" 	k="19" />
<hkern g1="D,O,Q,Eth,Ograve,Oacute,Ocircumflex,Otilde,Odieresis,Oslash" 	g2="Y,Yacute,Ydieresis" 	k="35" />
<hkern g1="D,O,Q,Eth,Ograve,Oacute,Ocircumflex,Otilde,Odieresis,Oslash" 	g2="V,W" 	k="10" />
<hkern g1="D,O,Q,Eth,Ograve,Oacute,Ocircumflex,Otilde,Odieresis,Oslash" 	g2="a,agrave,aacute,acircumflex,atilde,adieresis,aring,ae" 	k="-5" />
<hkern g1="D,O,Q,Eth,Ograve,Oacute,Ocircumflex,Otilde,Odieresis,Oslash" 	g2="v,w" 	k="-3" />
<hkern g1="D,O,Q,Eth,Ograve,Oacute,Ocircumflex,Otilde,Odieresis,Oslash" 	g2="y,yacute,ydieresis" 	k="-3" />
<hkern g1="D,O,Q,Eth,Ograve,Oacute,Ocircumflex,Otilde,Odieresis,Oslash" 	g2="hyphen,endash,emdash" 	k="-15" />
<hkern g1="D,O,Q,Eth,Ograve,Oacute,Ocircumflex,Otilde,Odieresis,Oslash" 	g2="quotedbl,quotesingle" 	k="10" />
<hkern g1="D,O,Q,Eth,Ograve,Oacute,Ocircumflex,Otilde,Odieresis,Oslash" 	g2="quoteleft,quoteright,quotedblleft,quotedblright" 	k="5" />
<hkern g1="D,O,Q,Eth,Ograve,Oacute,Ocircumflex,Otilde,Odieresis,Oslash" 	g2="comma,period,quotesinglbase,quotedblbase,ellipsis" 	k="13" />
<hkern g1="D,O,Q,Eth,Ograve,Oacute,Ocircumflex,Otilde,Odieresis,Oslash" 	g2="A,Agrave,Aacute,Acircumflex,Atilde,Adieresis,Aring,AE" 	k="13" />
<hkern g1="D,O,Q,Eth,Ograve,Oacute,Ocircumflex,Otilde,Odieresis,Oslash" 	g2="at,c,d,e,g,o,q,ccedilla,egrave,eacute,ecircumflex,edieresis,ograve,oacute,ocircumflex,otilde,odieresis,oslash,oe" 	k="-5" />
<hkern g1="D,O,Q,Eth,Ograve,Oacute,Ocircumflex,Otilde,Odieresis,Oslash" 	g2="m,n,p,r,u,ntilde,ugrave,uacute,ucircumflex,udieresis" 	k="-7" />
<hkern g1="E,Egrave,Eacute,Ecircumflex,Edieresis" 	g2="T" 	k="7" />
<hkern g1="E,Egrave,Eacute,Ecircumflex,Edieresis" 	g2="V,W" 	k="15" />
<hkern g1="E,Egrave,Eacute,Ecircumflex,Edieresis" 	g2="v,w" 	k="3" />
<hkern g1="E,Egrave,Eacute,Ecircumflex,Edieresis" 	g2="J" 	k="-7" />
<hkern g1="E,Egrave,Eacute,Ecircumflex,Edieresis" 	g2="f,uniFB01,uniFB02,uniFB03,uniFB04" 	k="-6" />
<hkern g1="G" 	g2="T" 	k="16" />
<hkern g1="G" 	g2="U,Ugrave,Uacute,Ucircumflex,Udieresis" 	k="8" />
<hkern g1="G" 	g2="a,agrave,aacute,acircumflex,atilde,adieresis,aring,ae" 	k="-9" />
<hkern g1="G" 	g2="hyphen,endash,emdash" 	k="-20" />
<hkern g1="G" 	g2="quotedbl,quotesingle" 	k="5" />
<hkern g1="G" 	g2="quoteleft,quoteright,quotedblleft,quotedblright" 	k="20" />
<hkern g1="G" 	g2="at,c,d,e,g,o,q,ccedilla,egrave,eacute,ecircumflex,edieresis,ograve,oacute,ocircumflex,otilde,odieresis,oslash,oe" 	k="-9" />
<hkern g1="G" 	g2="m,n,p,r,u,ntilde,ugrave,uacute,ucircumflex,udieresis" 	k="-9" />
<hkern g1="G" 	g2="colon,semicolon" 	k="-27" />
<hkern g1="G" 	g2="B,D,E,F,H,K,L,P,R,Egrave,Eacute,Ecircumflex,Edieresis" 	k="6" />
<hkern g1="H,N,Ntilde" 	g2="a,agrave,aacute,acircumflex,atilde,adieresis,aring,ae" 	k="10" />
<hkern g1="H,N,Ntilde" 	g2="v,w" 	k="10" />
<hkern g1="H,N,Ntilde" 	g2="y,yacute,ydieresis" 	k="10" />
<hkern g1="H,N,Ntilde" 	g2="comma,period,quotesinglbase,quotedblbase,ellipsis" 	k="20" />
<hkern g1="H,N,Ntilde" 	g2="at,c,d,e,g,o,q,ccedilla,egrave,eacute,ecircumflex,edieresis,ograve,oacute,ocircumflex,otilde,odieresis,oslash,oe" 	k="5" />
<hkern g1="J" 	g2="quoteleft,quoteright,quotedblleft,quotedblright" 	k="13" />
<hkern g1="J" 	g2="comma,period,quotesinglbase,quotedblbase,ellipsis" 	k="10" />
<hkern g1="J" 	g2="A,Agrave,Aacute,Acircumflex,Atilde,Adieresis,Aring,AE" 	k="10" />
<hkern g1="J" 	g2="colon,semicolon" 	k="17" />
<hkern g1="K" 	g2="C,G,O,Q,Ccedilla,Ograve,Oacute,Ocircumflex,Otilde,Odieresis,Oslash,OE" 	k="23" />
<hkern g1="K" 	g2="v,w" 	k="30" />
<hkern g1="K" 	g2="y,yacute,ydieresis" 	k="20" />
<hkern g1="K" 	g2="hyphen,endash,emdash" 	k="45" />
<hkern g1="K" 	g2="quoteleft,quoteright,quotedblleft,quotedblright" 	k="3" />
<hkern g1="K" 	g2="parenright,bracketright,bar,braceright" 	k="-25" />
<hkern g1="K" 	g2="comma,period,quotesinglbase,quotedblbase,ellipsis" 	k="-20" />
<hkern g1="K" 	g2="A,Agrave,Aacute,Acircumflex,Atilde,Adieresis,Aring,AE" 	k="-10" />
<hkern g1="K" 	g2="at,c,d,e,g,o,q,ccedilla,egrave,eacute,ecircumflex,edieresis,ograve,oacute,ocircumflex,otilde,odieresis,oslash,oe" 	k="9" />
<hkern g1="K" 	g2="colon,semicolon" 	k="-30" />
<hkern g1="K" 	g2="z" 	k="10" />
<hkern g1="K" 	g2="guillemotleft,guillemotright,guilsinglleft,guilsinglright" 	k="8" />
<hkern g1="L" 	g2="T" 	k="100" />
<hkern g1="L" 	g2="Y,Yacute,Ydieresis" 	k="80" />
<hkern g1="L" 	g2="V,W" 	k="40" />
<hkern g1="L" 	g2="C,G,O,Q,Ccedilla,Ograve,Oacute,Ocircumflex,Otilde,Odieresis,Oslash,OE" 	k="20" />
<hkern g1="L" 	g2="U,Ugrave,Uacute,Ucircumflex,Udieresis" 	k="37" />
<hkern g1="L" 	g2="v,w" 	k="48" />
<hkern g1="L" 	g2="y,yacute,ydieresis" 	k="39" />
<hkern g1="L" 	g2="hyphen,endash,emdash" 	k="35" />
<hkern g1="L" 	g2="quotedbl,quotesingle" 	k="81" />
<hkern g1="L" 	g2="quoteleft,quoteright,quotedblleft,quotedblright" 	k="60" />
<hkern g1="L" 	g2="comma,period,quotesinglbase,quotedblbase,ellipsis" 	k="-10" />
<hkern g1="L" 	g2="A,Agrave,Aacute,Acircumflex,Atilde,Adieresis,Aring,AE" 	k="-10" />
<hkern g1="L" 	g2="at,c,d,e,g,o,q,ccedilla,egrave,eacute,ecircumflex,edieresis,ograve,oacute,ocircumflex,otilde,odieresis,oslash,oe" 	k="11" />
<hkern g1="L" 	g2="m,n,p,r,u,ntilde,ugrave,uacute,ucircumflex,udieresis" 	k="5" />
<hkern g1="L" 	g2="B,D,E,F,H,K,L,P,R,Egrave,Eacute,Ecircumflex,Edieresis" 	k="31" />
<hkern g1="L" 	g2="b,h,k,l" 	k="13" />
<hkern g1="R" 	g2="T" 	k="23" />
<hkern g1="R" 	g2="Y,Yacute,Ydieresis" 	k="30" />
<hkern g1="R" 	g2="V,W" 	k="5" />
<hkern g1="R" 	g2="C,G,O,Q,Ccedilla,Ograve,Oacute,Ocircumflex,Otilde,Odieresis,Oslash,OE" 	k="3" />
<hkern g1="R" 	g2="quoteleft,quoteright,quotedblleft,quotedblright" 	k="18" />
<hkern g1="R" 	g2="comma,period,quotesinglbase,quotedblbase,ellipsis" 	k="-20" />
<hkern g1="R" 	g2="A,Agrave,Aacute,Acircumflex,Atilde,Adieresis,Aring,AE" 	k="-10" />
<hkern g1="R" 	g2="at,c,d,e,g,o,q,ccedilla,egrave,eacute,ecircumflex,edieresis,ograve,oacute,ocircumflex,otilde,odieresis,oslash,oe" 	k="7" />
<hkern g1="R" 	g2="m,n,p,r,u,ntilde,ugrave,uacute,ucircumflex,udieresis" 	k="-7" />
<hkern g1="S" 	g2="hyphen,endash,emdash" 	k="-5" />
<hkern g1="S" 	g2="quotedbl,quotesingle" 	k="-7" />
<hkern g1="S" 	g2="at,c,d,e,g,o,q,ccedilla,egrave,eacute,ecircumflex,edieresis,ograve,oacute,ocircumflex,otilde,odieresis,oslash,oe" 	k="-5" />
<hkern g1="S" 	g2="m,n,p,r,u,ntilde,ugrave,uacute,ucircumflex,udieresis" 	k="-5" />
<hkern g1="S" 	g2="z" 	k="5" />
<hkern g1="T" 	g2="Y,Yacute,Ydieresis" 	k="-10" />
<hkern g1="T" 	g2="V,W" 	k="-7" />
<hkern g1="T" 	g2="C,G,O,Q,Ccedilla,Ograve,Oacute,Ocircumflex,Otilde,Odieresis,Oslash,OE" 	k="19" />
<hkern g1="T" 	g2="a,agrave,aacute,acircumflex,atilde,adieresis,aring,ae" 	k="60" />
<hkern g1="T" 	g2="v,w" 	k="62" />
<hkern g1="T" 	g2="y,yacute,ydieresis" 	k="65" />
<hkern g1="T" 	g2="hyphen,endash,emdash" 	k="60" />
<hkern g1="T" 	g2="quotedbl,quotesingle" 	k="-20" />
<hkern g1="T" 	g2="comma,period,quotesinglbase,quotedblbase,ellipsis" 	k="70" />
<hkern g1="T" 	g2="A,Agrave,Aacute,Acircumflex,Atilde,Adieresis,Aring,AE" 	k="88" />
<hkern g1="T" 	g2="at,c,d,e,g,o,q,ccedilla,egrave,eacute,ecircumflex,edieresis,ograve,oacute,ocircumflex,otilde,odieresis,oslash,oe" 	k="75" />
<hkern g1="T" 	g2="m,n,p,r,u,ntilde,ugrave,uacute,ucircumflex,udieresis" 	k="45" />
<hkern g1="T" 	g2="J" 	k="50" />
<hkern g1="T" 	g2="z" 	k="62" />
<hkern g1="T" 	g2="guillemotleft,guillemotright,guilsinglleft,guilsinglright" 	k="30" />
<hkern g1="T" 	g2="M,N" 	k="11" />
<hkern g1="T" 	g2="s" 	k="47" />
<hkern g1="U,Ugrave,Uacute,Ucircumflex,Udieresis" 	g2="comma,period,quotesinglbase,quotedblbase,ellipsis" 	k="10" />
<hkern g1="U,Ugrave,Uacute,Ucircumflex,Udieresis" 	g2="A,Agrave,Aacute,Acircumflex,Atilde,Adieresis,Aring,AE" 	k="20" />
<hkern g1="U,Ugrave,Uacute,Ucircumflex,Udieresis" 	g2="M,N" 	k="5" />
<hkern g1="V,W" 	g2="T" 	k="-7" />
<hkern g1="V,W" 	g2="C,G,O,Q,Ccedilla,Ograve,Oacute,Ocircumflex,Otilde,Odieresis,Oslash,OE" 	k="10" />
<hkern g1="V,W" 	g2="a,agrave,aacute,acircumflex,atilde,adieresis,aring,ae" 	k="47" />
<hkern g1="V,W" 	g2="hyphen,endash,emdash" 	k="30" />
<hkern g1="V,W" 	g2="quotedbl,quotesingle" 	k="-20" />
<hkern g1="V,W" 	g2="quoteleft,quoteright,quotedblleft,quotedblright" 	k="-5" />
<hkern g1="V,W" 	g2="comma,period,quotesinglbase,quotedblbase,ellipsis" 	k="70" />
<hkern g1="V,W" 	g2="A,Agrave,Aacute,Acircumflex,Atilde,Adieresis,Aring,AE" 	k="36" />
<hkern g1="V,W" 	g2="at,c,d,e,g,o,q,ccedilla,egrave,eacute,ecircumflex,edieresis,ograve,oacute,ocircumflex,otilde,odieresis,oslash,oe" 	k="53" />
<hkern g1="V,W" 	g2="m,n,p,r,u,ntilde,ugrave,uacute,ucircumflex,udieresis" 	k="20" />
<hkern g1="V,W" 	g2="J" 	k="35" />
<hkern g1="V,W" 	g2="M,N" 	k="6" />
<hkern g1="V,W" 	g2="S" 	k="5" />
<hkern g1="Y,Yacute,Ydieresis" 	g2="T" 	k="-10" />
<hkern g1="Y,Yacute,Ydieresis" 	g2="a,agrave,aacute,acircumflex,atilde,adieresis,aring,ae" 	k="45" />
<hkern g1="Y,Yacute,Ydieresis" 	g2="hyphen,endash,emdash" 	k="60" />
<hkern g1="Y,Yacute,Ydieresis" 	g2="quotedbl,quotesingle" 	k="-20" />
<hkern g1="Y,Yacute,Ydieresis" 	g2="quoteleft,quoteright,quotedblleft,quotedblright" 	k="-3" />
<hkern g1="Y,Yacute,Ydieresis" 	g2="comma,period,quotesinglbase,quotedblbase,ellipsis" 	k="80" />
<hkern g1="Y,Yacute,Ydieresis" 	g2="A,Agrave,Aacute,Acircumflex,Atilde,Adieresis,Aring,AE" 	k="83" />
<hkern g1="Y,Yacute,Ydieresis" 	g2="at,c,d,e,g,o,q,ccedilla,egrave,eacute,ecircumflex,edieresis,ograve,oacute,ocircumflex,otilde,odieresis,oslash,oe" 	k="70" />
<hkern g1="Y,Yacute,Ydieresis" 	g2="m,n,p,r,u,ntilde,ugrave,uacute,ucircumflex,udieresis" 	k="37" />
<hkern g1="Y,Yacute,Ydieresis" 	g2="J" 	k="35" />
<hkern g1="Y,Yacute,Ydieresis" 	g2="z" 	k="30" />
<hkern g1="Y,Yacute,Ydieresis" 	g2="guillemotleft,guillemotright,guilsinglleft,guilsinglright" 	k="20" />
<hkern g1="Y,Yacute,Ydieresis" 	g2="M,N" 	k="17" />
<hkern g1="Y,Yacute,Ydieresis" 	g2="s" 	k="48" />
<hkern g1="Z" 	g2="hyphen,endash,emdash" 	k="30" />
<hkern g1="Z" 	g2="guillemotleft,guillemotright,guilsinglleft,guilsinglright" 	k="10" />
<hkern g1="a,h,m,n,agrave,aacute,acircumflex,atilde,adieresis,aring,ntilde" 	g2="T" 	k="85" />
<hkern g1="a,h,m,n,agrave,aacute,acircumflex,atilde,adieresis,aring,ntilde" 	g2="v,w" 	k="13" />
<hkern g1="a,h,m,n,agrave,aacute,acircumflex,atilde,adieresis,aring,ntilde" 	g2="y,yacute,ydieresis" 	k="13" />
<hkern g1="a,h,m,n,agrave,aacute,acircumflex,atilde,adieresis,aring,ntilde" 	g2="quotedbl,quotesingle" 	k="70" />
<hkern g1="a,h,m,n,agrave,aacute,acircumflex,atilde,adieresis,aring,ntilde" 	g2="quoteleft,quoteright,quotedblleft,quotedblright" 	k="37" />
<hkern g1="f" 	g2="T" 	k="-20" />
<hkern g1="f" 	g2="a,agrave,aacute,acircumflex,atilde,adieresis,aring,ae" 	k="21" />
<hkern g1="f" 	g2="hyphen,endash,emdash" 	k="17" />
<hkern g1="f" 	g2="quoteleft,quoteright,quotedblleft,quotedblright" 	k="-44" />
<hkern g1="f" 	g2="parenright,bracketright,bar,braceright" 	k="-13" />
<hkern g1="f" 	g2="comma,period,quotesinglbase,quotedblbase,ellipsis" 	k="50" />
<hkern g1="f" 	g2="at,c,d,e,g,o,q,ccedilla,egrave,eacute,ecircumflex,edieresis,ograve,oacute,ocircumflex,otilde,odieresis,oslash,oe" 	k="23" />
<hkern g1="f" 	g2="s" 	k="10" />
<hkern g1="g" 	g2="quoteleft,quoteright,quotedblleft,quotedblright" 	k="-20" />
<hkern g1="i,igrave,iacute,icircumflex,idieresis,uniFB01,uniFB03" 	g2="v,w" 	k="5" />
<hkern g1="i,igrave,iacute,icircumflex,idieresis,uniFB01,uniFB03" 	g2="y,yacute,ydieresis" 	k="5" />
<hkern g1="b,o,p,ograve,oacute,ocircumflex,otilde,odieresis,oslash,thorn" 	g2="T" 	k="40" />
<hkern g1="b,o,p,ograve,oacute,ocircumflex,otilde,odieresis,oslash,thorn" 	g2="Y,Yacute,Ydieresis" 	k="30" />
<hkern g1="b,o,p,ograve,oacute,ocircumflex,otilde,odieresis,oslash,thorn" 	g2="a,agrave,aacute,acircumflex,atilde,adieresis,aring,ae" 	k="5" />
<hkern g1="b,o,p,ograve,oacute,ocircumflex,otilde,odieresis,oslash,thorn" 	g2="v,w" 	k="10" />
<hkern g1="b,o,p,ograve,oacute,ocircumflex,otilde,odieresis,oslash,thorn" 	g2="y,yacute,ydieresis" 	k="10" />
<hkern g1="b,o,p,ograve,oacute,ocircumflex,otilde,odieresis,oslash,thorn" 	g2="quotedbl,quotesingle" 	k="10" />
<hkern g1="b,o,p,ograve,oacute,ocircumflex,otilde,odieresis,oslash,thorn" 	g2="quoteleft,quoteright,quotedblleft,quotedblright" 	k="50" />
<hkern g1="b,o,p,ograve,oacute,ocircumflex,otilde,odieresis,oslash,thorn" 	g2="comma,period,quotesinglbase,quotedblbase,ellipsis" 	k="13" />
<hkern g1="b,o,p,ograve,oacute,ocircumflex,otilde,odieresis,oslash,thorn" 	g2="z" 	k="10" />
<hkern g1="b,o,p,ograve,oacute,ocircumflex,otilde,odieresis,oslash,thorn" 	g2="b,h,k,l" 	k="10" />
<hkern g1="r" 	g2="a,agrave,aacute,acircumflex,atilde,adieresis,aring,ae" 	k="34" />
<hkern g1="r" 	g2="v,w" 	k="-13" />
<hkern g1="r" 	g2="y,yacute,ydieresis" 	k="-13" />
<hkern g1="r" 	g2="hyphen,endash,emdash" 	k="20" />
<hkern g1="r" 	g2="quoteleft,quoteright,quotedblleft,quotedblright" 	k="-35" />
<hkern g1="r" 	g2="comma,period,quotesinglbase,quotedblbase,ellipsis" 	k="55" />
<hkern g1="r" 	g2="at,c,d,e,g,o,q,ccedilla,egrave,eacute,ecircumflex,edieresis,ograve,oacute,ocircumflex,otilde,odieresis,oslash,oe" 	k="21" />
<hkern g1="r" 	g2="m,n,p,r,u,ntilde,ugrave,uacute,ucircumflex,udieresis" 	k="-8" />
<hkern g1="r" 	g2="b,h,k,l" 	k="11" />
<hkern g1="s" 	g2="quoteleft,quoteright,quotedblleft,quotedblright" 	k="10" />
<hkern g1="t" 	g2="a,agrave,aacute,acircumflex,atilde,adieresis,aring,ae" 	k="8" />
<hkern g1="t" 	g2="v,w" 	k="10" />
<hkern g1="t" 	g2="y,yacute,ydieresis" 	k="10" />
<hkern g1="t" 	g2="hyphen,endash,emdash" 	k="15" />
<hkern g1="t" 	g2="at,c,d,e,g,o,q,ccedilla,egrave,eacute,ecircumflex,edieresis,ograve,oacute,ocircumflex,otilde,odieresis,oslash,oe" 	k="11" />
<hkern g1="t" 	g2="b,h,k,l" 	k="8" />
<hkern g1="v,w" 	g2="T" 	k="30" />
<hkern g1="v,w" 	g2="a,agrave,aacute,acircumflex,atilde,adieresis,aring,ae" 	k="5" />
<hkern g1="v,w" 	g2="hyphen,endash,emdash" 	k="20" />
<hkern g1="v,w" 	g2="quoteleft,quoteright,quotedblleft,quotedblright" 	k="-23" />
<hkern g1="v,w" 	g2="comma,period,quotesinglbase,quotedblbase,ellipsis" 	k="40" />
<hkern g1="v,w" 	g2="at,c,d,e,g,o,q,ccedilla,egrave,eacute,ecircumflex,edieresis,ograve,oacute,ocircumflex,otilde,odieresis,oslash,oe" 	k="10" />
<hkern g1="y,yacute,ydieresis" 	g2="a,agrave,aacute,acircumflex,atilde,adieresis,aring,ae" 	k="7" />
<hkern g1="y,yacute,ydieresis" 	g2="hyphen,endash,emdash" 	k="20" />
<hkern g1="y,yacute,ydieresis" 	g2="quoteleft,quoteright,quotedblleft,quotedblright" 	k="-28" />
<hkern g1="y,yacute,ydieresis" 	g2="comma,period,quotesinglbase,quotedblbase,ellipsis" 	k="45" />
<hkern g1="y,yacute,ydieresis" 	g2="at,c,d,e,g,o,q,ccedilla,egrave,eacute,ecircumflex,edieresis,ograve,oacute,ocircumflex,otilde,odieresis,oslash,oe" 	k="10" />
<hkern g1="z" 	g2="v,w" 	k="18" />
<hkern g1="z" 	g2="y,yacute,ydieresis" 	k="15" />
<hkern g1="z" 	g2="hyphen,endash,emdash" 	k="20" />
<hkern g1="z" 	g2="quoteleft,quoteright,quotedblleft,quotedblright" 	k="-40" />
<hkern g1="z" 	g2="at,c,d,e,g,o,q,ccedilla,egrave,eacute,ecircumflex,edieresis,ograve,oacute,ocircumflex,otilde,odieresis,oslash,oe" 	k="10" />
<hkern g1="comma,period,quotesinglbase,quotedblbase,ellipsis" 	g2="T" 	k="70" />
<hkern g1="comma,period,quotesinglbase,quotedblbase,ellipsis" 	g2="Y,Yacute,Ydieresis" 	k="80" />
<hkern g1="comma,period,quotesinglbase,quotedblbase,ellipsis" 	g2="V,W" 	k="70" />
<hkern g1="comma,period,quotesinglbase,quotedblbase,ellipsis" 	g2="C,G,O,Q,Ccedilla,Ograve,Oacute,Ocircumflex,Otilde,Odieresis,Oslash,OE" 	k="10" />
<hkern g1="comma,period,quotesinglbase,quotedblbase,ellipsis" 	g2="v,w" 	k="40" />
<hkern g1="comma,period,quotesinglbase,quotedblbase,ellipsis" 	g2="y,yacute,ydieresis" 	k="40" />
<hkern g1="comma,period,quotesinglbase,quotedblbase,ellipsis" 	g2="hyphen,endash,emdash" 	k="90" />
<hkern g1="comma,period,quotesinglbase,quotedblbase,ellipsis" 	g2="at,c,d,e,g,o,q,ccedilla,egrave,eacute,ecircumflex,edieresis,ograve,oacute,ocircumflex,otilde,odieresis,oslash,oe" 	k="13" />
<hkern g1="comma,period,quotesinglbase,quotedblbase,ellipsis" 	g2="J" 	k="-25" />
<hkern g1="comma,period,quotesinglbase,quotedblbase,ellipsis" 	g2="B,D,E,F,H,K,L,P,R,Egrave,Eacute,Ecircumflex,Edieresis" 	k="20" />
<hkern g1="comma,period,quotesinglbase,quotedblbase,ellipsis" 	g2="guillemotleft,guillemotright,guilsinglleft,guilsinglright" 	k="50" />
<hkern g1="quoteleft,quoteright,quotedblleft,quotedblright" 	g2="T" 	k="-16" />
<hkern g1="quoteleft,quoteright,quotedblleft,quotedblright" 	g2="Y,Yacute,Ydieresis" 	k="-16" />
<hkern g1="quoteleft,quoteright,quotedblleft,quotedblright" 	g2="V,W" 	k="-16" />
<hkern g1="quoteleft,quoteright,quotedblleft,quotedblright" 	g2="C,G,O,Q,Ccedilla,Ograve,Oacute,Ocircumflex,Otilde,Odieresis,Oslash,OE" 	k="35" />
<hkern g1="quoteleft,quoteright,quotedblleft,quotedblright" 	g2="a,agrave,aacute,acircumflex,atilde,adieresis,aring,ae" 	k="45" />
<hkern g1="quoteleft,quoteright,quotedblleft,quotedblright" 	g2="v,w" 	k="-7" />
<hkern g1="quoteleft,quoteright,quotedblleft,quotedblright" 	g2="comma,period,quotesinglbase,quotedblbase,ellipsis" 	k="100" />
<hkern g1="quoteleft,quoteright,quotedblleft,quotedblright" 	g2="A,Agrave,Aacute,Acircumflex,Atilde,Adieresis,Aring,AE" 	k="90" />
<hkern g1="quoteleft,quoteright,quotedblleft,quotedblright" 	g2="at,c,d,e,g,o,q,ccedilla,egrave,eacute,ecircumflex,edieresis,ograve,oacute,ocircumflex,otilde,odieresis,oslash,oe" 	k="71" />
<hkern g1="quoteleft,quoteright,quotedblleft,quotedblright" 	g2="m,n,p,r,u,ntilde,ugrave,uacute,ucircumflex,udieresis" 	k="-10" />
<hkern g1="quoteleft,quoteright,quotedblleft,quotedblright" 	g2="J" 	k="60" />
<hkern g1="quoteleft,quoteright,quotedblleft,quotedblright" 	g2="z" 	k="3" />
<hkern g1="quoteleft,quoteright,quotedblleft,quotedblright" 	g2="b,h,k,l" 	k="-27" />
<hkern g1="quoteleft,quoteright,quotedblleft,quotedblright" 	g2="M,N" 	k="30" />
<hkern g1="quoteleft,quoteright,quotedblleft,quotedblright" 	g2="s" 	k="45" />
<hkern g1="quoteleft,quoteright,quotedblleft,quotedblright" 	g2="S" 	k="14" />
<hkern g1="quoteleft,quoteright,quotedblleft,quotedblright" 	g2="Z" 	k="-10" />
<hkern g1="quotedbl,quotesingle" 	g2="T" 	k="-20" />
<hkern g1="quotedbl,quotesingle" 	g2="Y,Yacute,Ydieresis" 	k="-20" />
<hkern g1="quotedbl,quotesingle" 	g2="V,W" 	k="-20" />
<hkern g1="quotedbl,quotesingle" 	g2="C,G,O,Q,Ccedilla,Ograve,Oacute,Ocircumflex,Otilde,Odieresis,Oslash,OE" 	k="10" />
<hkern g1="quotedbl,quotesingle" 	g2="a,agrave,aacute,acircumflex,atilde,adieresis,aring,ae" 	k="50" />
<hkern g1="quotedbl,quotesingle" 	g2="A,Agrave,Aacute,Acircumflex,Atilde,Adieresis,Aring,AE" 	k="90" />
<hkern g1="quotedbl,quotesingle" 	g2="at,c,d,e,g,o,q,ccedilla,egrave,eacute,ecircumflex,edieresis,ograve,oacute,ocircumflex,otilde,odieresis,oslash,oe" 	k="10" />
<hkern g1="quotedbl,quotesingle" 	g2="J" 	k="69" />
<hkern g1="quotedbl,quotesingle" 	g2="M,N" 	k="23" />
<hkern g1="quotedbl,quotesingle" 	g2="s" 	k="10" />
<hkern g1="quotedbl,quotesingle" 	g2="Z" 	k="-13" />
<hkern g1="hyphen,endash,emdash" 	g2="T" 	k="60" />
<hkern g1="hyphen,endash,emdash" 	g2="Y,Yacute,Ydieresis" 	k="60" />
<hkern g1="hyphen,endash,emdash" 	g2="V,W" 	k="30" />
<hkern g1="hyphen,endash,emdash" 	g2="C,G,O,Q,Ccedilla,Ograve,Oacute,Ocircumflex,Otilde,Odieresis,Oslash,OE" 	k="-15" />
<hkern g1="hyphen,endash,emdash" 	g2="v,w" 	k="20" />
<hkern g1="hyphen,endash,emdash" 	g2="y,yacute,ydieresis" 	k="20" />
<hkern g1="hyphen,endash,emdash" 	g2="A,Agrave,Aacute,Acircumflex,Atilde,Adieresis,Aring,AE" 	k="20" />
<hkern g1="hyphen,endash,emdash" 	g2="z" 	k="20" />
<hkern g1="hyphen,endash,emdash" 	g2="S" 	k="30" />
<hkern g1="hyphen,endash,emdash" 	g2="Z" 	k="10" />
<hkern g1="guillemotleft,guillemotright,guilsinglleft,guilsinglright" 	g2="T" 	k="30" />
<hkern g1="guillemotleft,guillemotright,guilsinglleft,guilsinglright" 	g2="Y,Yacute,Ydieresis" 	k="20" />
<hkern g1="u,ugrave,uacute,ucircumflex,udieresis" 	g2="T" 	k="40" />
<hkern g1="u,ugrave,uacute,ucircumflex,udieresis" 	g2="quoteleft,quoteright,quotedblleft,quotedblright" 	k="30" />
<hkern g1="e,ae,egrave,eacute,ecircumflex,edieresis,oe" 	g2="T" 	k="40" />
<hkern g1="e,ae,egrave,eacute,ecircumflex,edieresis,oe" 	g2="quoteleft,quoteright,quotedblleft,quotedblright" 	k="29" />
</font>
</defs></svg> 